  ncores         MPI     threads     dip_TOT      Xo_TOT       X_TOT        io_X       io_WF   Sgm_x_TOT   Sgm_c_TOT   WALL_TIME
     128          16           8        1308        1000           3           1           9          36         359        2613
     256          32           8         643         584           4           1           9          21         182        1368
     384          48           8         460         397           5           1           6          16         122         934
