	mpi	thrs	thr_tot	nodes	nodes_io	mpi/gpu	Time-Profile	io_ATMPROJ_pwscf	io_KB_abinit	io_BS	io_Double_Grid	io_COL_CUT	GW(REDUX)	PP_uspp_init	IO_and_Messaging_switch	io_HF	HF(REDUX)	io_QINDX	scatter_Gamp_gpu	io_QP_and_GF	io_GROT	io_KB_pwscf	FFT_setup	io_X	SERIAL_lin_system_gpu	LINEAR ALGEBRA	MATRIX transfer (X_G_finite_q_X_redux_2_2)	MATRIX transfer (X_G_finite_q_X_redux_2_1)	MATRIX transfer (X_G_finite_q_X_redux_1_1)	MATRIX transfer (X_G_finite_q_X_redux_1_2)	io_fragment	io_DIPOLES	RIM	X (REDUX)	X	io_WF	HF	WF_load_FFT	Xo (REDUX)	XC_potential_driver	XCo_local	GW(ppa)	DIPOLE_transverse	Xo	Dipoles	gpu	ideal	speedup	efficiency	Self energy	Other	node_h
12	4	8	32	1	1	1	6840.0	0.0	0.0	0.0001	0.0002	0.0002	17.8557	0.0008	0.0007	0.0124	0.775	0.0058	0.0246	0.0203	0.0599	0.4501	0.1747	2.2075	4.6596	4.6597	0.5374	0.5621	0.542	0.522	2.081	1.1908	0.7739	6.2346	6.3851	19.1789	67.0438	22.5172	252.976	7.4098	7.5677	818.0	2922.0	3020.0	2924.0	4	0.2	0.2577485380116959	128.87426900584794	885.0438	4.571100000000001	1.9
6	8	8	64	2	1	1	3840.0	0.0	0.0001	0.0001	0.0012	0.0002	12.7475	0.0009	0.0007	0.0139	1.4482	0.0103	0.0243	0.0208	0.0613	0.499	0.1859	1.607	4.9471	4.9473	0.5115	0.5265	0.5329	0.5192	2.0746	1.2998	0.6813	6.6029	6.6888	15.0854	35.6535	17.6867	779.0	5.4289	5.5711	415.9733	1476.0	1932.0	1479.0	8	0.4	0.4591145833333333	114.77864583333333	451.6268	-29.315600000000018	2.1333333333333333
8	12	8	96	3	1	1	2767.0	0.0001	0.0001	0.0001	0.0002	0.0002	44.6039	0.0009	0.0007	0.0137	0.5589	0.0048	0.0242	0.0201	0.0808	0.4544	0.1756	1.5175	5.7254	5.7256	0.5148	0.5416	0.5265	0.5233	2.5754	1.4916	0.6798	7.4945	7.488	12.8218	24.5143	14.8257	605.0	4.7306	4.8918	310.139	995.0	1402.0	999.0	12	0.6	0.6371521503433322	106.19202505722203	334.6533	23.8587	2.305833333333333
9	16	8	128	4	1	1	2168.0	0.0	0.0001	0.0001	0.0007	0.0003	38.3588	0.0006	0.0005	0.0579	0.8506	0.0074	0.0128	0.0222	0.0666	0.4511	0.1714	1.6898	5.5136	5.5138	0.5222	0.5264	0.5173	0.5211	2.3099	1.4703	0.6826	7.0752	7.2262	12.0979	17.8595	14.1314	405.3314	4.485	4.5687	239.2053	741.0	1136.0	743.0	16	0.8	0.8131918819188192	101.6489852398524	257.0648	24.709000000000003	2.408888888888889
5	20	8	160	5	1	1	1763.0	0.0	0.0001	0.0001	0.0002	0.0003	21.0583	0.0006	0.0006	0.0155	0.5017	0.0147	0.0066	0.0223	0.0313	0.1681	0.1969	1.5813	0.4431	0.4433	0.5482	0.5433	0.5323	0.5345	1.5054	1.4498	0.6856	2.1345	2.2058	9.8024	13.5441	11.6529	345.4213	4.3021	4.3452	182.2453	597.1288	938.0	600.0	20	1.0	1.0	100.0	195.7894	27.00479999999999	2.448611111111111
1	40	8	320	10	1	1	1019.0	0.0001	0.0001	0.0001	0.0002	0.0003	36.2691	0.0007	0.0006	0.0139	0.3518	0.0062	0.0065	0.0206	0.034	0.2271	0.1906	1.5185	0.5876	0.5878	0.5151	0.5268	0.5235	0.5056	1.5931	1.3195	0.6915	2.2508	2.4054	6.0979	7.3134	7.3209	237.5078	3.8817	3.9279	117.3595	310.5541	552.2515	314.6036	40	2.0	1.730127576054956	86.50637880274779	124.6729	25.066600000000136	2.8305555555555557
2	60	8	480	15	1	1	721.0	0.0001	0.0001	0.0001	0.0002	0.0009	18.4313	0.0007	0.0006	0.0141	0.3483	0.014	0.0064	0.0216	0.0704	0.546	0.1782	1.2739	5.3409	5.3411	0.5354	0.5367	0.5444	0.5322	2.5676	1.6154	0.7374	7.0286	7.2033	8.0957	5.2038	9.0297	168.779	3.7542	3.788	73.3145	211.1586	387.6636	217.8861	60	3.0	2.4452149791955615	81.50716597318538	78.5183	29.728700000000032	3.004166666666667
7	80	8	640	20	1	1	542.0	0.0001	0.0001	0.0002	0.0003	0.0004	6.5959	0.0006	0.0006	0.014	0.4764	0.0137	0.0066	0.0224	0.0319	0.227	0.2032	0.9378	0.4823	0.4824	0.5348	0.533	0.5404	0.5338	1.3983	1.4089	0.6949	2.1985	2.3379	3.9492	4.2208	4.9056	131.4928	3.7968	3.7982	47.2827	161.0821	301.9688	165.0172	80	4.0	3.2527675276752768	81.31918819188192	51.503499999999995	21.17260000000001	3.011111111111111
3	100	8	800	25	1	1	446.0	0.0001	0.0001	0.0001	0.0021	0.0003	8.7988	0.0006	0.0006	0.0134	0.3791	0.0071	0.0065	0.0201	0.0784	0.2649	0.195	1.3711	0.4719	0.472	0.5349	0.548	0.5255	0.5255	1.8485	1.4399	0.694	2.4241	2.3202	4.005	3.4973	4.7585	102.4577	3.5927	3.6208	41.6215	132.1271	235.7383	137.569	100	5.0	3.9529147982062782	79.05829596412556	45.1188	25.25370000000003	3.0972222222222223
10	120	8	960	30	1	1	405.0	0.0001	0.0001	0.0002	0.0002	0.0004	3.5241	0.0006	0.0006	0.0139	0.344	0.0232	0.0064	0.0216	0.1084	0.1931	0.2012	0.9148	0.4714	0.4716	0.5299	0.5391	0.5538	0.531	1.2904	1.2994	0.7216	2.4957	2.3611	3.119	3.1035	3.8531	101.0865	3.5794	3.6044	30.8981	114.7679	217.878	123.248	120	6.0	4.353086419753087	72.55144032921811	34.001599999999996	27.511300000000027	3.375
11	140	8	1120	35	1	1	354.0	0.0001	0.0002	0.0001	0.0003	0.0398	5.8286	0.0007	0.0006	0.0158	1.0648	0.046	0.008	0.0221	0.061	0.1646	0.2016	0.9459	0.4686	0.4687	0.5396	0.5402	0.5334	0.5358	1.995	1.539	0.8712	2.5295	2.346	3.5678	2.9769	4.2796	81.8921	3.5789	3.5799	30.1686	98.1385	182.5872	106.4343	140	7.0	4.980225988700565	71.14608555286522	33.1455	29.486999999999995	3.441666666666667
0	160	8	1280	40	1	1	316.0	0.0001	0.0001	0.0002	0.0003	0.0115	4.1322	0.0007	0.0006	0.0145	0.6117	0.0141	0.008	0.0223	0.069	0.1934	0.1784	1.0487	0.4618	0.462	0.5482	0.5415	0.5453	0.5349	1.44	1.4429	0.7176	2.4539	2.4356	2.8723	2.7075	3.5505	68.7737	3.6082	3.6094	25.7179	88.0622	159.8472	95.4596	160	8.0	5.579113924050633	69.73892405063292	28.4254	29.832200000000018	3.511111111111111
4	200	8	1600	50	1	1	267.0	0.0001	0.0001	0.0002	0.0007	0.0004	2.2952	0.0007	0.0006	0.0224	0.4926	0.0233	0.0065	0.0216	0.0775	0.3546	0.1836	1.2448	0.4529	0.4531	0.5268	0.5432	0.5406	0.542	2.2204	1.5189	0.7142	2.2422	2.3841	3.7778	2.3449	4.4302	63.5833	3.6264	3.6324	20.2887	74.2974	137.8192	81.1682	200	10.0	6.602996254681648	66.02996254681648	22.633599999999998	22.99489999999999	3.7083333333333335
