12 reduced U4O8
periodic 10.24630218  10.24630218  10.24630218
U  0.500000 0.500000 0.500000
U  0.500000 0.000000 0.000000
U  0.000000 0.000000 0.500000
U  0.000000 0.500000 0.000000
O  0.750000 0.250000 0.750000 
O  0.250000 0.250000 0.250000 
O  0.750000 0.750000 0.250000 
O  0.750000 0.250000 0.250000 
O  0.750000 0.750000 0.750000 
O  0.250000 0.750000 0.250000 
O  0.250000 0.250000 0.750000 
O  0.250000 0.750000 0.750000 
