scf_GrCoIr_nodes72_mpi72_nthr12_npool1_ndiag1_ntg1_GPU-p100.out:       PWSCF        :   3d19h50m CPU      7h47m WALL
scf_GrCoIr_nodes144_mpi144_nthr12_npool1_ndiag1_ntg1_GPU-p100.out:     PWSCF        :   3d16h46m CPU      7h30m WALL
scf_GrCoIr_nodes144_mpi144_nthr12_npool2_ndiag1_ntg1_GPU-p100.out:     PWSCF        :   2d11h13m CPU      5h 0m WALL
scf_GrCoIr_nodes240_mpi240_nthr12_npool4_ndiag1_ntg1_GPU-p100.out:     PWSCF        :   1d11h26m CPU      2h59m WALL
