
     Program PWSCF v.6.5 starts on 30May2020 at 15:43:37 

     This program is part of the open-source Quantum ESPRESSO suite
     for quantum simulation of materials; please cite
         "P. Giannozzi et al., J. Phys.:Condens. Matter 21 395502 (2009);
         "P. Giannozzi et al., J. Phys.:Condens. Matter 29 465901 (2017);
          URL http://www.quantum-espresso.org", 
     in publications or presentations arising from this work. More details at
     http://www.quantum-espresso.org/quote

     Parallel version (MPI), running on     8 processors

     MPI processes distributed on     1 nodes
     R & G space division:  proc/nbgrp/npool/nimage =       8
     Fft bands division:     nmany     =       1
     Reading input from scf.in
Warning: card &IONS ignored
Warning: card / ignored
Warning: card &CELL ignored
Warning: card / ignored

     Current dimensions of program PWSCF are:
     Max number of different atomic species (ntypx) = 10
     Max number of k-points (npk) =  40000
     Max angular momentum in pseudopotentials (lmaxx) =  3

     -------------------------------------------------
     Parameters for Dispersion (Grimme-D2) Correction:
     -------------------------------------------------
       atom      VdW radius       C_6     

        Mn1        2.952        374.666
        Mn2        2.952        374.666
        C          2.744         60.710
        O          2.536         24.284
        H          1.892          4.857

     Subspace diagonalization in iterative solution of the eigenvalue problem:
     one sub-group per band group will be used
     scalapack distributed-memory algorithm (size of sub-group:  2*  2 procs)

 
     Parallelization info
     --------------------
     sticks:   dense  smooth     PW     G-vecs:    dense   smooth      PW
     Min        2235    1118    307                97502    34462    5000
     Max        2238    1119    308                97503    34463    5001
     Sum       17897    8945   2463               780021   275701   40003
 


     bravais-lattice index     =            0
     lattice parameter (alat)  =      30.6206  a.u.
     unit-cell volume          =    9857.2747 (a.u.)^3
     number of atoms/cell      =           72
     number of atomic types    =            5
     number of electrons       =       324.00
     number of Kohn-Sham states=          194
     kinetic-energy cutoff     =      35.0000  Ry
     charge density cutoff     =     280.0000  Ry
     convergence threshold     =      1.0E-08
     mixing beta               =       0.7000
     number of iterations used =            8  plain     mixing
     Exchange-correlation=  SLA  PW   PBX  PBC
                           (   1   4   3   4   0   0   0)

     celldm(1)=  30.620580  celldm(2)=   0.000000  celldm(3)=   0.000000
     celldm(4)=   0.000000  celldm(5)=   0.000000  celldm(6)=   0.000000

     crystal axes: (cart. coord. in units of alat)
               a(1) = (   1.000000  -0.000000   0.000290 )  
               a(2) = (  -0.000000   0.856477  -0.000000 )  
               a(3) = (  -0.000488   0.000000   0.400867 )  

     reciprocal axes: (cart. coord. in units 2 pi/alat)
               b(1) = (  1.000000  0.000000  0.001217 )  
               b(2) = (  0.000000  1.167573 -0.000000 )  
               b(3) = ( -0.000723  0.000000  2.494590 )  


     PseudoPot. # 1 for Mn read from file:
     ../pseudo/mn_pbe_v1.5.uspp.F.upf
     MD5 check sum: 82ef2b46521d7a7d9e736dc3972e4928
     Pseudo is Ultrasoft + core correction, Zval = 15.0
     Generated by new atomic code, or converted to UPF format
     Using radial grid of  859 points,  6 beta functions with: 
                l(1) =   0
                l(2) =   0
                l(3) =   1
                l(4) =   1
                l(5) =   2
                l(6) =   2
     Q(r) pseudized with  8 coefficients,  rinner =    0.950   0.950   0.950
                                                       0.950   0.950

     PseudoPot. # 2 for Mn read from file:
     ../pseudo/mn_pbe_v1.5.uspp.F.upf
     MD5 check sum: 82ef2b46521d7a7d9e736dc3972e4928
     Pseudo is Ultrasoft + core correction, Zval = 15.0
     Generated by new atomic code, or converted to UPF format
     Using radial grid of  859 points,  6 beta functions with: 
                l(1) =   0
                l(2) =   0
                l(3) =   1
                l(4) =   1
                l(5) =   2
                l(6) =   2
     Q(r) pseudized with  8 coefficients,  rinner =    0.950   0.950   0.950
                                                       0.950   0.950

     PseudoPot. # 3 for C  read from file:
     ../pseudo/c_pbe_v1.2.uspp.F.upf
     MD5 check sum: d1aef80898a10debaa0f26306b886e00
     Pseudo is Ultrasoft + core correction, Zval =  4.0
     Generated by new atomic code, or converted to UPF format
     Using radial grid of  721 points,  4 beta functions with: 
                l(1) =   0
                l(2) =   0
                l(3) =   1
                l(4) =   1
     Q(r) pseudized with  8 coefficients,  rinner =    1.100   1.100   1.100


     PseudoPot. # 4 for O  read from file:
     ../pseudo/o_pbe_v1.2.uspp.F.upf
     MD5 check sum: 734c27235a0248c51dbae37a1fbe46ec
     Pseudo is Ultrasoft + core correction, Zval =  6.0
     Generated by new atomic code, or converted to UPF format
     Using radial grid of  737 points,  5 beta functions with: 
                l(1) =   0
                l(2) =   0
                l(3) =   1
                l(4) =   1
                l(5) =   2
     Q(r) pseudized with  8 coefficients,  rinner =    0.900   0.900   0.900
                                                       0.900   0.900

     PseudoPot. # 5 for H  read from file:
     ../pseudo/h_pbe_v1.4.uspp.F.upf
     MD5 check sum: 761ae9a214b05c3daf00ab9f6b793d6f
     Pseudo is Ultrasoft, Zval =  1.0
     Generated by new atomic code, or converted to UPF format
     Using radial grid of  615 points,  2 beta functions with: 
                l(1) =   0
                l(2) =   0
     Q(r) pseudized with  8 coefficients,  rinner =    0.700

     atomic species   valence    mass     pseudopotential
        Mn1           15.00    55.00000     Mn( 1.00)
        Mn2           15.00    55.00000     Mn( 1.00)
        C              4.00    12.01000     C ( 1.00)
        O              6.00    16.00000     O ( 1.00)
        H              1.00     1.00000     H ( 1.00)

     Starting magnetic structure 
     atomic species   magnetization
        Mn1          0.100
        Mn2         -0.100
        C            0.000
        O            0.000
        H            0.000

     No symmetry found



   Cartesian axes

     site n.     atom                  positions (alat units)
         1           Mn1 tau(   1) = (   0.7486858   0.6421958   0.1003775  )
         2           Mn2 tau(   2) = (   0.7484469   0.6422362   0.3008071  )
         3           Mn1 tau(   3) = (   0.2487745   0.2140853   0.1002342  )
         4           Mn2 tau(   4) = (   0.2485354   0.2140448   0.3006624  )
         5           O   tau(   5) = (   0.6621461   0.5638459   0.1296322  )
         6           O   tau(   6) = (   0.1619878   0.1356780   0.3299122  )
         7           O   tau(   7) = (   0.8349632   0.5638499   0.2715718  )
         8           O   tau(   8) = (   0.3352994   0.1356886   0.0710093  )
         9           O   tau(   9) = (   0.1636286   0.2938643   0.2707206  )
        10           O   tau(  10) = (   0.6637789   0.7220318   0.0704245  )
        11           O   tau(  11) = (   0.3336209   0.2939551   0.1301968  )
        12           O   tau(  12) = (   0.8332998   0.7221240   0.3307867  )
        13           O   tau(  13) = (   0.3350517   0.2924322   0.2714308  )
        14           O   tau(  14) = (   0.8352108   0.7205955   0.0711512  )
        15           O   tau(  15) = (   0.1622373   0.2924365   0.1294883  )
        16           O   tau(  16) = (   0.6618988   0.7206062   0.3300576  )
        17           O   tau(  17) = (   0.8335332   0.5623252   0.1303432  )
        18           O   tau(  18) = (   0.3333879   0.1341600   0.3306388  )
        19           O   tau(  19) = (   0.6635384   0.5624194   0.2708638  )
        20           O   tau(  20) = (   0.1638681   0.1342523   0.0702806  )
        21           O   tau(  21) = (   0.7483267   0.5985677   0.4010051  )
        22           O   tau(  22) = (   0.2486618   0.1703960   0.2004460  )
        23           O   tau(  23) = (   0.2484173   0.2577140   0.4008633  )
        24           O   tau(  24) = (   0.7485720   0.6858853   0.2005920  )
        25           C   tau(  25) = (   0.5278125   0.4598948   0.1256551  )
        26           C   tau(  26) = (   0.0275850   0.0316638   0.3259352  )
        27           C   tau(  27) = (   0.9691509   0.4595986   0.2755921  )
        28           C   tau(  28) = (   0.4694541   0.0314218   0.0750330  )
        29           C   tau(  29) = (   0.0352435   0.4050132   0.2751885  )
        30           C   tau(  30) = (   0.5354334   0.8331819   0.0749185  )
        31           C   tau(  31) = (   0.4617846   0.4052619   0.1257687  )
        32           C   tau(  32) = (   0.9615276   0.8334800   0.3263400  )
        33           C   tau(  33) = (   0.4691873   0.3966585   0.2754438  )
        34           C   tau(  34) = (   0.9694200   0.8248844   0.0751813  )
        35           C   tau(  35) = (   0.0278464   0.3964153   0.1255072  )
        36           C   tau(  36) = (   0.5275537   0.8245936   0.3260827  )
        37           C   tau(  37) = (   0.9617494   0.4509939   0.1259103  )
        38           C   tau(  38) = (   0.4615641   0.0228316   0.3261982  )
        39           C   tau(  39) = (   0.5352107   0.4512982   0.2753311  )
        40           C   tau(  40) = (   0.0354671   0.0230702   0.0747761  )
        41           C   tau(  41) = (   0.5647123   0.4831063   0.2004291  )
        42           C   tau(  42) = (   0.6357925   0.5416995   0.2002915  )
        43           C   tau(  43) = (   0.0649841   0.0548906  -0.0001500  )
        44           C   tau(  44) = (   0.1356311   0.1135278   0.4005763  )
        45           C   tau(  45) = (   0.9322562   0.4828385   0.2008111  )
        46           C   tau(  46) = (   0.8612516   0.5415864   0.2009255  )
        47           C   tau(  47) = (   0.4325937   0.0546928   0.0002338  )
        48           C   tau(  48) = (   0.3615918   0.1134341   0.0003576  )
        49           C   tau(  49) = (   0.0647709   0.3732113   0.2002831  )
        50           C   tau(  50) = (   0.1358779   0.3145942   0.2001466  )
        51           C   tau(  51) = (   0.5649258   0.8013583  -0.0000047  )
        52           C   tau(  52) = (   0.6355468   0.7427457   0.4007203  )
        53           C   tau(  53) = (   0.4323165   0.3734108   0.2006653  )
        54           C   tau(  54) = (   0.3613422   0.3146905   0.2007807  )
        55           C   tau(  55) = (   0.9325332   0.8016225   0.0003797  )
        56           C   tau(  56) = (   0.8615011   0.7428541   0.0005018  )
        57           H   tau(  57) = (   0.5518112   0.4854863   0.0680669  )
        58           H   tau(  58) = (   0.0516368   0.0572967   0.2683542  )
        59           H   tau(  59) = (   0.9451095   0.4852030   0.3331657  )
        60           H   tau(  60) = (   0.4454428   0.0570436   0.1326236  )
        61           H   tau(  61) = (   0.0652807   0.3863722   0.3326291  )
        62           H   tau(  62) = (   0.5654387   0.8145217   0.1323783  )
        63           H   tau(  63) = (   0.4317792   0.3866491   0.0683135  )
        64           H   tau(  64) = (   0.9314751   0.8148247   0.2688890  )
        65           H   tau(  65) = (   0.4451899   0.3710668   0.3330331  )
        66           H   tau(  66) = (   0.9453651   0.7992473   0.1327560  )
        67           H   tau(  67) = (   0.0518899   0.3708105   0.0679344  )
        68           H   tau(  68) = (   0.5515618   0.7989763   0.2684864  )
        69           H   tau(  69) = (   0.9317029   0.4696205   0.0684706  )
        70           H   tau(  70) = (   0.4315547   0.0414737   0.2687315  )
        71           H   tau(  71) = (   0.5652062   0.4699247   0.3327867  )
        72           H   tau(  72) = (   0.0655156   0.0417436   0.1322210  )

     number of k points=    16  Marzari-Vanderbilt smearing, width (Ry)=  0.0500
                       cart. coord. in units 2pi/alat
        k(    1) = (   0.0000000   0.0000000   0.0000000), wk =   0.0416667
        k(    2) = (  -0.0001206   0.0000000   0.4157650), wk =   0.0833333
        k(    3) = (  -0.0002411   0.0000000   0.8315300), wk =   0.0833333
        k(    4) = (   0.0003617  -0.0000001  -1.2472950), wk =   0.0416667
        k(    5) = (  -0.0000002  -0.5837867   0.0000000), wk =   0.0416667
        k(    6) = (  -0.0001207  -0.5837867   0.4157650), wk =   0.0833333
        k(    7) = (  -0.0002413  -0.5837867   0.8315300), wk =   0.0833333
        k(    8) = (   0.0003615  -0.5837868  -1.2472950), wk =   0.0416667
        k(    9) = (  -0.4999998  -0.0000001  -0.0006086), wk =   0.0416667
        k(   10) = (  -0.5001204  -0.0000000   0.4151564), wk =   0.0833333
        k(   11) = (  -0.5002410  -0.0000000   0.8309214), wk =   0.0833333
        k(   12) = (  -0.4996381  -0.0000001  -1.2479036), wk =   0.0416667
        k(   13) = (  -0.5000000  -0.5837868  -0.0006086), wk =   0.0416667
        k(   14) = (  -0.5001206  -0.5837867   0.4151564), wk =   0.0833333
        k(   15) = (  -0.5002412  -0.5837867   0.8309214), wk =   0.0833333
        k(   16) = (  -0.4996383  -0.5837868  -1.2479036), wk =   0.0416667

     Dense  grid:   780021 G-vectors     FFT dimensions: ( 180, 144,  72)

     Smooth grid:   275701 G-vectors     FFT dimensions: ( 120, 100,  48)

     Estimated max dynamical RAM per process >     900.77 MB

     Estimated total dynamical RAM >       7.04 GB

     Check: negative core charge=   -0.000008
     Generating pointlists ...
     new r_m :   0.0451 (alat units)  1.3808 (a.u.) for type    1
     new r_m :   0.0451 (alat units)  1.3806 (a.u.) for type    2
     new r_m :   0.0278 (alat units)  0.8518 (a.u.) for type    3
     new r_m :   0.0324 (alat units)  0.9928 (a.u.) for type    4
     new r_m :   0.0278 (alat units)  0.8518 (a.u.) for type    5

     Initial potential from superposition of free atoms

     starting charge  321.99819, renormalised to  324.00000
     Starting wfcs are  276 randomized atomic wfcs

     total cpu time spent up to now is       33.9 secs

     Self-consistent Calculation

     iteration #  1     ecut=    35.00 Ry     beta= 0.70
     Davidson diagonalization with overlap
     ethr =  1.00E-02,  avg # of iterations =  2.8

     total cpu time spent up to now is      113.7 secs

     total energy              =   -1871.66104488 Ry
     estimated scf accuracy    <      12.66260341 Ry

     total magnetization       =     0.00 Bohr mag/cell
     absolute magnetization    =     9.19 Bohr mag/cell

     iteration #  2     ecut=    35.00 Ry     beta= 0.70
     Davidson diagonalization with overlap
     ethr =  3.91E-03,  avg # of iterations =  3.3

     total cpu time spent up to now is      199.4 secs

     total energy              =   -1862.86193523 Ry
     estimated scf accuracy    <     125.19230650 Ry

     total magnetization       =    -0.00 Bohr mag/cell
     absolute magnetization    =     0.66 Bohr mag/cell

     iteration #  3     ecut=    35.00 Ry     beta= 0.70
     Davidson diagonalization with overlap
     ethr =  3.91E-03,  avg # of iterations =  3.2

     total cpu time spent up to now is      271.6 secs

     total energy              =   -1874.76902045 Ry
     estimated scf accuracy    <      18.33301747 Ry

     total magnetization       =    -0.01 Bohr mag/cell
     absolute magnetization    =     5.92 Bohr mag/cell

     iteration #  4     ecut=    35.00 Ry     beta= 0.70
     Davidson diagonalization with overlap
     ethr =  3.91E-03,  avg # of iterations =  2.8

     total cpu time spent up to now is      335.5 secs

     total energy              =   -1875.04692452 Ry
     estimated scf accuracy    <      34.99484722 Ry

     total magnetization       =    -0.05 Bohr mag/cell
     absolute magnetization    =     2.73 Bohr mag/cell

     iteration #  5     ecut=    35.00 Ry     beta= 0.70
     Davidson diagonalization with overlap
     ethr =  3.91E-03,  avg # of iterations =  1.4

     total cpu time spent up to now is      392.4 secs

     total energy              =   -1877.37293057 Ry
     estimated scf accuracy    <       0.65208247 Ry

     total magnetization       =    -0.02 Bohr mag/cell
     absolute magnetization    =     8.41 Bohr mag/cell

     iteration #  6     ecut=    35.00 Ry     beta= 0.70
     Davidson diagonalization with overlap
     c_bands:  2 eigenvalues not converged
     c_bands:  2 eigenvalues not converged
     c_bands:  1 eigenvalues not converged
     ethr =  2.01E-04,  avg # of iterations = 12.2

     total cpu time spent up to now is      486.7 secs

     total energy              =   -1876.74272910 Ry
     estimated scf accuracy    <      28.41113539 Ry

     total magnetization       =    -0.18 Bohr mag/cell
     absolute magnetization    =     2.98 Bohr mag/cell

     iteration #  7     ecut=    35.00 Ry     beta= 0.70
     Davidson diagonalization with overlap
     ethr =  2.01E-04,  avg # of iterations =  4.3

     total cpu time spent up to now is      554.9 secs

     total energy              =   -1877.46683720 Ry
     estimated scf accuracy    <       0.56352785 Ry

     total magnetization       =    -0.02 Bohr mag/cell
     absolute magnetization    =     8.69 Bohr mag/cell

     iteration #  8     ecut=    35.00 Ry     beta= 0.70
     Davidson diagonalization with overlap
     ethr =  1.74E-04,  avg # of iterations =  2.0

     total cpu time spent up to now is      617.1 secs

     total energy              =   -1877.33336831 Ry
     estimated scf accuracy    <       3.83131073 Ry

     total magnetization       =    -0.63 Bohr mag/cell
     absolute magnetization    =     7.94 Bohr mag/cell

     iteration #  9     ecut=    35.00 Ry     beta= 0.70
     Davidson diagonalization with overlap
     ethr =  1.74E-04,  avg # of iterations =  2.0

     total cpu time spent up to now is      679.5 secs

     total energy              =   -1877.50490699 Ry
     estimated scf accuracy    <       0.11618065 Ry

     total magnetization       =    -0.02 Bohr mag/cell
     absolute magnetization    =     9.16 Bohr mag/cell

     iteration # 10     ecut=    35.00 Ry     beta= 0.70
     Davidson diagonalization with overlap
     c_bands:  1 eigenvalues not converged
     ethr =  3.59E-05,  avg # of iterations =  7.6

     total cpu time spent up to now is      753.2 secs

     total energy              =   -1877.49875578 Ry
     estimated scf accuracy    <       0.25303031 Ry

     total magnetization       =     0.22 Bohr mag/cell
     absolute magnetization    =     9.36 Bohr mag/cell

     iteration # 11     ecut=    35.00 Ry     beta= 0.70
     Davidson diagonalization with overlap
     ethr =  3.59E-05,  avg # of iterations =  1.8

     total cpu time spent up to now is      812.9 secs

     total energy              =   -1877.51714225 Ry
     estimated scf accuracy    <       0.10259705 Ry

     total magnetization       =    -0.08 Bohr mag/cell
     absolute magnetization    =     9.47 Bohr mag/cell

     iteration # 12     ecut=    35.00 Ry     beta= 0.70
     Davidson diagonalization with overlap
     ethr =  3.17E-05,  avg # of iterations =  1.6

     total cpu time spent up to now is      872.4 secs

     total energy              =   -1877.52075980 Ry
     estimated scf accuracy    <       0.03145825 Ry

     total magnetization       =     0.01 Bohr mag/cell
     absolute magnetization    =    10.00 Bohr mag/cell

     iteration # 13     ecut=    35.00 Ry     beta= 0.70
     Davidson diagonalization with overlap
     c_bands:  2 eigenvalues not converged
     c_bands:  1 eigenvalues not converged
     c_bands:  2 eigenvalues not converged
     c_bands:  1 eigenvalues not converged
     ethr =  9.71E-06,  avg # of iterations =  8.0

     total cpu time spent up to now is      948.8 secs

     total energy              =   -1877.52133876 Ry
     estimated scf accuracy    <       0.05195605 Ry

     total magnetization       =     0.00 Bohr mag/cell
     absolute magnetization    =    10.21 Bohr mag/cell

     iteration # 14     ecut=    35.00 Ry     beta= 0.70
     Davidson diagonalization with overlap
     ethr =  9.71E-06,  avg # of iterations =  2.5

     total cpu time spent up to now is     1012.5 secs

     total energy              =   -1877.52234080 Ry
     estimated scf accuracy    <       0.01055613 Ry

     total magnetization       =     0.01 Bohr mag/cell
     absolute magnetization    =    10.34 Bohr mag/cell

     iteration # 15     ecut=    35.00 Ry     beta= 0.70
     Davidson diagonalization with overlap
     c_bands:  1 eigenvalues not converged
     c_bands:  1 eigenvalues not converged
     ethr =  3.26E-06,  avg # of iterations =  6.7

     total cpu time spent up to now is     1084.2 secs

     total energy              =   -1877.52161037 Ry
     estimated scf accuracy    <       0.00530507 Ry

     total magnetization       =     0.01 Bohr mag/cell
     absolute magnetization    =    10.40 Bohr mag/cell

     iteration # 16     ecut=    35.00 Ry     beta= 0.70
     Davidson diagonalization with overlap
     c_bands:  2 eigenvalues not converged
     c_bands:  1 eigenvalues not converged
     c_bands:  2 eigenvalues not converged
     ethr =  1.64E-06,  avg # of iterations =  8.8

     total cpu time spent up to now is     1166.1 secs

     total energy              =   -1877.52063260 Ry
     estimated scf accuracy    <       0.04793886 Ry

     total magnetization       =     0.01 Bohr mag/cell
     absolute magnetization    =    10.60 Bohr mag/cell

     iteration # 17     ecut=    35.00 Ry     beta= 0.70
     Davidson diagonalization with overlap
     ethr =  1.64E-06,  avg # of iterations =  2.6

     total cpu time spent up to now is     1230.1 secs

     total energy              =   -1877.52276619 Ry
     estimated scf accuracy    <       0.00065513 Ry

     total magnetization       =     0.01 Bohr mag/cell
     absolute magnetization    =    10.53 Bohr mag/cell

     iteration # 18     ecut=    35.00 Ry     beta= 0.70
     Davidson diagonalization with overlap
     ethr =  2.02E-07,  avg # of iterations =  3.8

     total cpu time spent up to now is     1305.4 secs

     total energy              =   -1877.52230057 Ry
     estimated scf accuracy    <       0.01183777 Ry

     total magnetization       =    -0.05 Bohr mag/cell
     absolute magnetization    =    10.61 Bohr mag/cell

     iteration # 19     ecut=    35.00 Ry     beta= 0.70
     Davidson diagonalization with overlap
     ethr =  2.02E-07,  avg # of iterations =  3.6

     total cpu time spent up to now is     1373.8 secs

     total energy              =   -1877.52299771 Ry
     estimated scf accuracy    <       0.00024157 Ry

     total magnetization       =     0.01 Bohr mag/cell
     absolute magnetization    =    10.57 Bohr mag/cell

     iteration # 20     ecut=    35.00 Ry     beta= 0.70
     Davidson diagonalization with overlap
     ethr =  7.46E-08,  avg # of iterations =  2.5

     total cpu time spent up to now is     1437.0 secs

     total energy              =   -1877.52300427 Ry
     estimated scf accuracy    <       0.00039814 Ry

     total magnetization       =    -0.00 Bohr mag/cell
     absolute magnetization    =    10.58 Bohr mag/cell

     iteration # 21     ecut=    35.00 Ry     beta= 0.70
     Davidson diagonalization with overlap
     ethr =  7.46E-08,  avg # of iterations =  2.0

     total cpu time spent up to now is     1499.0 secs

     total energy              =   -1877.52303097 Ry
     estimated scf accuracy    <       0.00005585 Ry

     total magnetization       =     0.00 Bohr mag/cell
     absolute magnetization    =    10.58 Bohr mag/cell

     iteration # 22     ecut=    35.00 Ry     beta= 0.70
     Davidson diagonalization with overlap
     ethr =  1.72E-08,  avg # of iterations =  2.0

     total cpu time spent up to now is     1561.0 secs

     total energy              =   -1877.52303244 Ry
     estimated scf accuracy    <       0.00004236 Ry

     total magnetization       =     0.00 Bohr mag/cell
     absolute magnetization    =    10.59 Bohr mag/cell

     iteration # 23     ecut=    35.00 Ry     beta= 0.70
     Davidson diagonalization with overlap
     ethr =  1.31E-08,  avg # of iterations =  2.0

     total cpu time spent up to now is     1624.1 secs

     total energy              =   -1877.52303114 Ry
     estimated scf accuracy    <       0.00006931 Ry

     total magnetization       =     0.00 Bohr mag/cell
     absolute magnetization    =    10.59 Bohr mag/cell

     iteration # 24     ecut=    35.00 Ry     beta= 0.70
     Davidson diagonalization with overlap
     ethr =  1.31E-08,  avg # of iterations =  2.0

     total cpu time spent up to now is     1686.5 secs

     total energy              =   -1877.52303752 Ry
     estimated scf accuracy    <       0.00000815 Ry

     total magnetization       =     0.00 Bohr mag/cell
     absolute magnetization    =    10.59 Bohr mag/cell

     iteration # 25     ecut=    35.00 Ry     beta= 0.70
     Davidson diagonalization with overlap
     ethr =  2.52E-09,  avg # of iterations =  2.0

     total cpu time spent up to now is     1749.0 secs

     total energy              =   -1877.52303826 Ry
     estimated scf accuracy    <       0.00000241 Ry

     total magnetization       =     0.00 Bohr mag/cell
     absolute magnetization    =    10.59 Bohr mag/cell

     iteration # 26     ecut=    35.00 Ry     beta= 0.70
     Davidson diagonalization with overlap
     ethr =  7.43E-10,  avg # of iterations =  2.0

     total cpu time spent up to now is     1812.1 secs

     total energy              =   -1877.52303815 Ry
     estimated scf accuracy    <       0.00000545 Ry

     total magnetization       =     0.00 Bohr mag/cell
     absolute magnetization    =    10.59 Bohr mag/cell

     iteration # 27     ecut=    35.00 Ry     beta= 0.70
     Davidson diagonalization with overlap
     ethr =  7.43E-10,  avg # of iterations =  2.0

     total cpu time spent up to now is     1873.8 secs

     total energy              =   -1877.52303847 Ry
     estimated scf accuracy    <       0.00000142 Ry

     total magnetization       =     0.00 Bohr mag/cell
     absolute magnetization    =    10.59 Bohr mag/cell

     iteration # 28     ecut=    35.00 Ry     beta= 0.70
     Davidson diagonalization with overlap
     ethr =  4.39E-10,  avg # of iterations =  2.0

     total cpu time spent up to now is     1935.6 secs

     total energy              =   -1877.52303853 Ry
     estimated scf accuracy    <       0.00000078 Ry

     total magnetization       =     0.00 Bohr mag/cell
     absolute magnetization    =    10.60 Bohr mag/cell

     iteration # 29     ecut=    35.00 Ry     beta= 0.70
     Davidson diagonalization with overlap
     ethr =  2.41E-10,  avg # of iterations =  1.5

     total cpu time spent up to now is     1994.0 secs

     total energy              =   -1877.52303859 Ry
     estimated scf accuracy    <       0.00000023 Ry

     total magnetization       =     0.00 Bohr mag/cell
     absolute magnetization    =    10.60 Bohr mag/cell

     iteration # 30     ecut=    35.00 Ry     beta= 0.70
     Davidson diagonalization with overlap
     ethr =  7.14E-11,  avg # of iterations =  2.0

     total cpu time spent up to now is     2055.8 secs

     total energy              =   -1877.52303858 Ry
     estimated scf accuracy    <       0.00000042 Ry

     total magnetization       =     0.00 Bohr mag/cell
     absolute magnetization    =    10.60 Bohr mag/cell

     iteration # 31     ecut=    35.00 Ry     beta= 0.70
     Davidson diagonalization with overlap
     ethr =  7.14E-11,  avg # of iterations =  2.0

     total cpu time spent up to now is     2117.8 secs

     total energy              =   -1877.52303861 Ry
     estimated scf accuracy    <       0.00000005 Ry

     total magnetization       =     0.00 Bohr mag/cell
     absolute magnetization    =    10.60 Bohr mag/cell

     iteration # 32     ecut=    35.00 Ry     beta= 0.70
     Davidson diagonalization with overlap
     ethr =  1.57E-11,  avg # of iterations =  2.0

     total cpu time spent up to now is     2179.5 secs

     total energy              =   -1877.52303861 Ry
     estimated scf accuracy    <       0.00000002 Ry

     total magnetization       =     0.00 Bohr mag/cell
     absolute magnetization    =    10.60 Bohr mag/cell

     iteration # 33     ecut=    35.00 Ry     beta= 0.70
     Davidson diagonalization with overlap
     ethr =  5.72E-12,  avg # of iterations =  1.6
 
     Magnetic moment per site:
     atom:    1    charge:   11.3155    magn:    1.9758    constr:    0.0000
     atom:    2    charge:   11.3144    magn:   -1.9745    constr:    0.0000
     atom:    3    charge:   11.3156    magn:    1.9757    constr:    0.0000
     atom:    4    charge:   11.3144    magn:   -1.9746    constr:    0.0000
     atom:    5    charge:    3.2530    magn:   -0.0162    constr:    0.0000
     atom:    6    charge:    3.2532    magn:    0.0162    constr:    0.0000
     atom:    7    charge:    3.2541    magn:    0.0162    constr:    0.0000
     atom:    8    charge:    3.2541    magn:   -0.0163    constr:    0.0000
     atom:    9    charge:    3.2549    magn:    0.0158    constr:    0.0000
     atom:   10    charge:    3.2550    magn:   -0.0158    constr:    0.0000
     atom:   11    charge:    3.2513    magn:   -0.0158    constr:    0.0000
     atom:   12    charge:    3.2513    magn:    0.0158    constr:    0.0000
     atom:   13    charge:    3.2542    magn:    0.0162    constr:    0.0000
     atom:   14    charge:    3.2541    magn:   -0.0163    constr:    0.0000
     atom:   15    charge:    3.2534    magn:   -0.0162    constr:    0.0000
     atom:   16    charge:    3.2533    magn:    0.0162    constr:    0.0000
     atom:   17    charge:    3.2511    magn:   -0.0158    constr:    0.0000
     atom:   18    charge:    3.2512    magn:    0.0158    constr:    0.0000
     atom:   19    charge:    3.2546    magn:    0.0158    constr:    0.0000
     atom:   20    charge:    3.2547    magn:   -0.0158    constr:    0.0000
     atom:   21    charge:    3.2039    magn:    0.0001    constr:    0.0000
     atom:   22    charge:    3.2040    magn:    0.0000    constr:    0.0000
     atom:   23    charge:    3.2040    magn:    0.0001    constr:    0.0000
     atom:   24    charge:    3.2038    magn:    0.0000    constr:    0.0000
     atom:   25    charge:    0.8624    magn:    0.0004    constr:    0.0000
     atom:   26    charge:    0.8620    magn:   -0.0004    constr:    0.0000
     atom:   27    charge:    0.8624    magn:   -0.0004    constr:    0.0000
     atom:   28    charge:    0.8623    magn:    0.0004    constr:    0.0000
     atom:   29    charge:    0.8627    magn:   -0.0005    constr:    0.0000
     atom:   30    charge:    0.8627    magn:    0.0005    constr:    0.0000
     atom:   31    charge:    0.8627    magn:    0.0005    constr:    0.0000
     atom:   32    charge:    0.8623    magn:   -0.0005    constr:    0.0000
     atom:   33    charge:    0.8624    magn:   -0.0004    constr:    0.0000
     atom:   34    charge:    0.8620    magn:    0.0004    constr:    0.0000
     atom:   35    charge:    0.8622    magn:    0.0004    constr:    0.0000
     atom:   36    charge:    0.8622    magn:   -0.0004    constr:    0.0000
     atom:   37    charge:    0.8624    magn:    0.0005    constr:    0.0000
     atom:   38    charge:    0.8624    magn:   -0.0005    constr:    0.0000
     atom:   39    charge:    0.8630    magn:   -0.0005    constr:    0.0000
     atom:   40    charge:    0.8626    magn:    0.0005    constr:    0.0000
     atom:   41    charge:    0.8610    magn:    0.0000    constr:    0.0000
     atom:   42    charge:    0.8344    magn:   -0.0000    constr:    0.0000
     atom:   43    charge:    0.8607    magn:   -0.0000    constr:    0.0000
     atom:   44    charge:    0.8341    magn:    0.0000    constr:    0.0000
     atom:   45    charge:    0.8607    magn:   -0.0000    constr:    0.0000
     atom:   46    charge:    0.8323    magn:    0.0000    constr:    0.0000
     atom:   47    charge:    0.8609    magn:    0.0000    constr:    0.0000
     atom:   48    charge:    0.8324    magn:   -0.0000    constr:    0.0000
     atom:   49    charge:    0.8611    magn:    0.0000    constr:    0.0000
     atom:   50    charge:    0.8340    magn:   -0.0000    constr:    0.0000
     atom:   51    charge:    0.8611    magn:   -0.0000    constr:    0.0000
     atom:   52    charge:    0.8341    magn:    0.0000    constr:    0.0000
     atom:   53    charge:    0.8613    magn:   -0.0000    constr:    0.0000
     atom:   54    charge:    0.8327    magn:    0.0000    constr:    0.0000
     atom:   55    charge:    0.8610    magn:    0.0000    constr:    0.0000
     atom:   56    charge:    0.8326    magn:   -0.0000    constr:    0.0000
     atom:   57    charge:    0.4919    magn:    0.0001    constr:    0.0000
     atom:   58    charge:    0.4915    magn:   -0.0001    constr:    0.0000
     atom:   59    charge:    0.4925    magn:   -0.0001    constr:    0.0000
     atom:   60    charge:    0.4923    magn:    0.0001    constr:    0.0000
     atom:   61    charge:    0.4915    magn:   -0.0001    constr:    0.0000
     atom:   62    charge:    0.4914    magn:    0.0001    constr:    0.0000
     atom:   63    charge:    0.4917    magn:    0.0001    constr:    0.0000
     atom:   64    charge:    0.4914    magn:   -0.0001    constr:    0.0000
     atom:   65    charge:    0.4924    magn:   -0.0001    constr:    0.0000
     atom:   66    charge:    0.4921    magn:    0.0001    constr:    0.0000
     atom:   67    charge:    0.4917    magn:    0.0001    constr:    0.0000
     atom:   68    charge:    0.4916    magn:   -0.0001    constr:    0.0000
     atom:   69    charge:    0.4916    magn:    0.0001    constr:    0.0000
     atom:   70    charge:    0.4915    magn:   -0.0001    constr:    0.0000
     atom:   71    charge:    0.4917    magn:   -0.0001    constr:    0.0000
     atom:   72    charge:    0.4913    magn:    0.0001    constr:    0.0000

     total cpu time spent up to now is     2238.4 secs

     End of self-consistent calculation

 ------ SPIN UP ------------


          k = 0.0000 0.0000 0.0000 ( 34505 PWs)   bands (ev):

   -82.4762 -82.4761 -79.7399 -79.7399 -51.3240 -51.3240 -51.2281 -51.2281
   -50.9780 -50.9779 -48.5680 -48.5679 -48.5474 -48.5474 -48.4447 -48.4446
   -23.5819 -23.5796 -23.4234 -23.4208 -23.3793 -23.3765 -23.3545 -23.3516
   -21.4585 -21.4574 -21.2624 -21.2612 -21.2552 -21.2540 -21.2317 -21.2306
   -18.7833 -18.7790 -17.9288 -17.9257 -17.7991 -17.7950 -17.7928 -17.7892
   -15.5018 -15.4621 -15.4570 -15.4518 -14.8408 -14.8369 -14.8350 -14.8319
   -12.9338 -12.7663 -12.7466 -12.7418 -11.3714 -11.3209 -11.3067 -11.3064
   -11.1125 -10.7738 -10.6831 -10.6016 -10.2679 -10.1394 -10.0981 -10.0795
    -9.6332  -9.4123  -9.3211  -9.2658  -9.1058  -9.0354  -8.9742  -8.7254
    -8.7056  -8.6767  -8.4466  -8.3261  -8.3252  -8.2922  -8.1053  -8.0909
    -7.8728  -7.8267  -7.4357  -7.3776  -7.3765  -7.3753  -7.3530  -7.2921
    -7.2864  -7.2585  -7.2230  -7.2155  -7.1406  -7.1384  -7.1048  -7.0938
    -7.0216  -7.0034  -6.3732  -6.3457  -6.3428  -6.3378  -6.3342  -6.1408
    -5.9548  -5.7582  -5.5401  -5.3994  -5.3423  -5.3359  -5.3332  -5.2790
    -5.2361  -5.0236  -4.8894  -4.8756  -4.3817  -4.3495  -4.3417  -4.3393
    -4.3146  -4.3056  -4.2818  -4.2547  -4.2335  -4.2108  -4.1659  -4.1086
    -3.9887  -3.9576  -3.9559  -3.9543  -3.9237  -3.8682  -3.8382  -3.8270
    -3.7960  -3.7881  -3.3285  -3.2942  -3.2690  -3.2513  -3.1437  -2.9530
    -2.8983  -2.8427  -2.8335  -2.8187  -2.7407  -2.7273  -2.7116  -2.6991
    -2.6663  -2.4744  -2.4423  -2.4322  -2.4102  -2.3719  -1.9107  -1.9104
    -1.6395  -1.6380  -0.2642  -0.0521   0.0166   0.0337   0.1257   0.1328
     0.9036   0.9229   1.0554   1.1053   1.1505   1.2304   1.4760   1.5208
     2.0605   2.0775   2.4824   2.4850   2.5131   2.5241   2.7460   2.7501
     2.9094   3.0563   3.1004   3.2935   3.3224   3.6028   3.7131   3.9390
     4.1119   4.1335

          k =-0.0001 0.0000 0.4158 ( 34453 PWs)   bands (ev):

   -82.4762 -82.4761 -79.7399 -79.7399 -51.3240 -51.3239 -51.2281 -51.2280
   -50.9779 -50.9778 -48.5680 -48.5679 -48.5474 -48.5473 -48.4446 -48.4446
   -23.5713 -23.5689 -23.4340 -23.4313 -23.3774 -23.3746 -23.3559 -23.3530
   -21.4466 -21.4455 -21.2709 -21.2697 -21.2609 -21.2598 -21.2343 -21.2332
   -18.7287 -18.7245 -17.9895 -17.9864 -17.7955 -17.7914 -17.7896 -17.7858
   -15.4978 -15.4633 -15.4551 -15.4500 -14.8603 -14.8564 -14.8547 -14.8515
   -12.9184 -12.7591 -12.7547 -12.7355 -11.3935 -11.3441 -11.3347 -11.3310
   -11.0856 -10.7560 -10.6734 -10.6514 -10.2154 -10.0816 -10.0608 -10.0429
    -9.5759  -9.3884  -9.2388  -9.2312  -9.0793  -9.0289  -8.9593  -8.7316
    -8.7313  -8.7031  -8.4946  -8.4263  -8.2847  -8.2433  -8.1263  -8.0938
    -7.8443  -7.7995  -7.4642  -7.3604  -7.3544  -7.3078  -7.2802  -7.2663
    -7.2663  -7.2091  -7.1849  -7.1827  -7.1653  -7.1478  -7.0847  -6.9890
    -6.9107  -6.9036  -6.4992  -6.4888  -6.4852  -6.4786  -6.2998  -6.0910
    -5.9214  -5.7296  -5.5346  -5.4062  -5.3920  -5.3269  -5.3207  -5.2233
    -5.1496  -5.0316  -4.9081  -4.8778  -4.5450  -4.5164  -4.4601  -4.4171
    -4.3981  -4.3959  -4.3722  -4.3718  -4.3571  -4.3352  -4.0700  -4.0690
    -4.0559  -4.0251  -3.9515  -3.9350  -3.8871  -3.8655  -3.7738  -3.7275
    -3.7159  -3.7080  -3.3107  -3.2814  -3.2641  -3.2557  -3.2283  -3.1381
    -3.1124  -2.8557  -2.8380  -2.8143  -2.7464  -2.7449  -2.7422  -2.7195
    -2.6403  -2.6266  -2.5739  -2.5716  -2.5554  -2.3636  -1.6633  -1.6619
    -1.4638  -1.4621  -0.2648  -0.0526   0.1401   0.1441   0.2491   0.2576
     0.9389   0.9497   1.0079   1.0276   1.1305   1.2478   1.4735   1.5100
     2.0251   2.0379   2.4446   2.4519   2.4691   2.4840   2.7712   2.7878
     2.9250   3.0557   3.2120   3.2450   3.2692   3.7252   3.8099   4.0764
     4.2068   4.2504

          k =-0.0002 0.0000 0.8315 ( 34470 PWs)   bands (ev):

   -82.4762 -82.4761 -79.7399 -79.7399 -51.3240 -51.3239 -51.2282 -51.2281
   -50.9778 -50.9777 -48.5680 -48.5679 -48.5475 -48.5474 -48.4447 -48.4447
   -23.5422 -23.5398 -23.4629 -23.4603 -23.3724 -23.3696 -23.3599 -23.3571
   -21.4130 -21.4119 -21.3119 -21.3108 -21.2565 -21.2553 -21.2411 -21.2399
   -18.5783 -18.5742 -18.1526 -18.1492 -17.7883 -17.7841 -17.7829 -17.7788
   -15.4879 -15.4678 -15.4511 -15.4463 -14.8984 -14.8946 -14.8935 -14.8900
   -12.8791 -12.7859 -12.7390 -12.7245 -11.4299 -11.3931 -11.3873 -11.3789
   -11.0101 -10.7671 -10.7164 -10.6600 -10.1077 -10.0267  -9.9605  -9.9309
    -9.4439  -9.3347  -9.1583  -9.0425  -9.0385  -8.9805  -8.9138  -8.7988
    -8.7692  -8.7289  -8.6317  -8.5438  -8.2568  -8.1803  -8.1640  -8.0808
    -7.7702  -7.7250  -7.5482  -7.4756  -7.3178  -7.3029  -7.2681  -7.2607
    -7.1862  -7.1634  -7.1079  -7.0612  -7.0122  -7.0044  -6.9955  -6.9813
    -6.7619  -6.7505  -6.7463  -6.7401  -6.4803  -6.3952  -6.1904  -5.9966
    -5.9124  -5.7383  -5.5234  -5.4184  -5.4128  -5.3378  -5.3150  -5.1181
    -5.0569  -5.0280  -5.0238  -4.9092  -4.8810  -4.7358  -4.7266  -4.7151
    -4.6663  -4.6519  -4.5867  -4.5657  -4.5206  -4.4813  -4.2319  -4.1751
    -3.9931  -3.9681  -3.9446  -3.9102  -3.7563  -3.7339  -3.6667  -3.6365
    -3.6248  -3.6165  -3.5297  -3.4426  -3.3139  -3.2632  -3.2323  -3.1378
    -3.0739  -2.9593  -2.9040  -2.8944  -2.8382  -2.8340  -2.8065  -2.7860
    -2.7744  -2.7578  -2.7546  -2.7142  -2.5249  -2.3493  -1.3077  -1.3056
    -1.1510  -1.1493  -0.2778  -0.0572   0.1709   0.1723   0.6463   0.6539
     0.8363   0.8445   1.0063   1.0236   1.1268   1.2827   1.4666   1.4873
     1.9579   1.9669   2.3807   2.3915   2.3931   2.4119   2.8032   2.8779
     2.9524   3.0328   3.1275   3.1318   3.5385   4.0516   4.1027   4.4164
     4.4831   4.5668

          k = 0.0004-0.0000-1.2473 ( 34392 PWs)   bands (ev):

   -82.4762 -82.4761 -79.7399 -79.7399 -51.3239 -51.3239 -51.2281 -51.2281
   -50.9776 -50.9775 -48.5680 -48.5680 -48.5474 -48.5473 -48.4447 -48.4447
   -23.5034 -23.5016 -23.5009 -23.4991 -23.3666 -23.3651 -23.3639 -23.3624
   -21.3659 -21.3648 -21.3627 -21.3616 -21.2499 -21.2488 -21.2487 -21.2476
   -18.3703 -18.3671 -18.3665 -18.3633 -17.7846 -17.7803 -17.7796 -17.7753
   -15.4789 -15.4741 -15.4491 -15.4444 -14.9170 -14.9130 -14.9128 -14.9089
   -12.8348 -12.8256 -12.7292 -12.7206 -11.4364 -11.4315 -11.4068 -11.4031
   -10.9105 -10.8844 -10.6907 -10.6599 -10.0459 -10.0185  -9.8959  -9.8759
    -9.3585  -9.3117  -9.1115  -9.0279  -8.8914  -8.8831  -8.8578  -8.8498
    -8.8417  -8.7930  -8.7075  -8.6154  -8.2330  -8.2085  -8.1091  -8.0955
    -7.6931  -7.6430  -7.6310  -7.5752  -7.3140  -7.2967  -7.2900  -7.2729
    -7.1941  -7.1769  -7.0566  -7.0350  -6.9239  -6.9173  -6.8890  -6.8828
    -6.8756  -6.8727  -6.8713  -6.8691  -6.2214  -6.0316  -5.9130  -5.8424
    -5.7971  -5.7728  -5.5337  -5.5193  -5.5168  -5.4233  -5.4062  -5.3092
    -5.2986  -5.0775  -5.0179  -4.9336  -4.9053  -4.8363  -4.8247  -4.8086
    -4.7988  -4.7230  -4.6748  -4.6670  -4.6558  -4.5695  -4.3323  -4.3312
    -3.9094  -3.8912  -3.8736  -3.8721  -3.7688  -3.7616  -3.6673  -3.5972
    -3.5428  -3.5169  -3.4552  -3.4097  -3.3323  -3.2910  -3.2276  -3.1567
    -3.1521  -3.1040  -2.9986  -2.9627  -2.9311  -2.8760  -2.8498  -2.8076
    -2.7867  -2.7841  -2.7623  -2.7293  -2.4848  -2.3423  -1.1506  -1.1475
    -0.9920  -0.9891  -0.2870  -0.0604   0.1886   0.1919   0.7264   0.7320
     0.8147   0.8317   1.0302   1.0939   1.1010   1.3043   1.4625   1.4753
     1.9337   1.9448   2.3529   2.3560   2.3721   2.3722   2.8307   2.9504
     2.9679   2.9733   3.0525   3.0539   4.0103   4.0132   4.4889   4.4907
     4.5793   4.5891

          k =-0.0000-0.5838 0.0000 ( 34458 PWs)   bands (ev):

   -82.4762 -82.4761 -79.7399 -79.7399 -51.3240 -51.3239 -51.2281 -51.2280
   -50.9779 -50.9779 -48.5679 -48.5679 -48.5474 -48.5473 -48.4446 -48.4446
   -23.5812 -23.5803 -23.4225 -23.4217 -23.3784 -23.3775 -23.3534 -23.3525
   -21.4583 -21.4576 -21.2622 -21.2614 -21.2550 -21.2542 -21.2315 -21.2307
   -18.7811 -18.7811 -17.9273 -17.9272 -17.7986 -17.7944 -17.7936 -17.7895
   -15.4843 -15.4798 -15.4568 -15.4523 -14.8403 -14.8362 -14.8360 -14.8320
   -12.8483 -12.8432 -12.7565 -12.7514 -11.3416 -11.3385 -11.3152 -11.3121
   -10.8987 -10.8968 -10.7317 -10.7294 -10.1333 -10.1296 -10.1184 -10.1144
    -9.4995  -9.4985  -9.2215  -9.2195  -9.1932  -9.1912  -8.9474  -8.9454
    -8.4685  -8.4682  -8.4511  -8.4503  -8.2437  -8.2419  -8.2129  -8.2108
    -7.8506  -7.8499  -7.3880  -7.3871  -7.3711  -7.3691  -7.3115  -7.3105
    -7.2881  -7.2868  -7.2323  -7.2310  -7.1773  -7.1751  -7.0568  -7.0565
    -7.0127  -7.0123  -6.3438  -6.3403  -6.3402  -6.3366  -6.1952  -6.1946
    -5.9919  -5.9911  -5.4504  -5.4476  -5.3145  -5.3123  -5.2512  -5.2508
    -5.0897  -5.0894  -4.9648  -4.9646  -4.3457  -4.3437  -4.3281  -4.3262
    -4.3195  -4.3188  -4.2827  -4.2825  -4.2202  -4.2198  -4.1396  -4.1393
    -3.9807  -3.9799  -3.9538  -3.9531  -3.8923  -3.8920  -3.8273  -3.8272
    -3.7933  -3.7933  -3.2786  -3.2781  -3.2113  -3.2110  -3.1496  -3.1483
    -2.9260  -2.9258  -2.7888  -2.7867  -2.7350  -2.7324  -2.7141  -2.7116
    -2.4759  -2.4758  -2.4510  -2.4509  -2.4265  -2.4264  -1.9105  -1.9103
    -1.6387  -1.6385  -0.1697  -0.1692   0.0252   0.0253   0.1294   0.1296
     0.9892   0.9912   1.0835   1.0851   1.1146   1.1147   1.4952   1.4955
     2.0683   2.0683   2.4978   2.4979   2.5045   2.5045   2.8343   2.8350
     2.9033   2.9043   3.3003   3.3005   3.3194   3.3200   3.7805   3.7810
     4.0387   4.0392

          k =-0.0001-0.5838 0.4158 ( 34478 PWs)   bands (ev):

   -82.4762 -82.4761 -79.7399 -79.7399 -51.3240 -51.3239 -51.2281 -51.2281
   -50.9779 -50.9778 -48.5680 -48.5680 -48.5474 -48.5474 -48.4446 -48.4446
   -23.5705 -23.5697 -23.4331 -23.4322 -23.3765 -23.3756 -23.3548 -23.3539
   -21.4464 -21.4456 -21.2707 -21.2699 -21.2608 -21.2599 -21.2342 -21.2333
   -18.7266 -18.7266 -17.9880 -17.9879 -17.7952 -17.7910 -17.7902 -17.7860
   -15.4830 -15.4784 -15.4549 -15.4504 -14.8598 -14.8558 -14.8556 -14.8516
   -12.8442 -12.8392 -12.7489 -12.7438 -11.3638 -11.3608 -11.3390 -11.3360
   -10.9025 -10.9005 -10.7178 -10.7155 -10.1055 -10.1019 -10.0622 -10.0582
    -9.4484  -9.4472  -9.1907  -9.1888  -9.1631  -9.1610  -8.9485  -8.9465
    -8.5010  -8.5008  -8.4960  -8.4952  -8.2539  -8.2522  -8.1836  -8.1815
    -7.8244  -7.8237  -7.4061  -7.4056  -7.3444  -7.3427  -7.2500  -7.2490
    -7.2251  -7.2244  -7.2027  -7.2026  -7.1698  -7.1694  -7.0243  -7.0238
    -6.9085  -6.9084  -6.4909  -6.4878  -6.4851  -6.4819  -6.1417  -6.1409
    -5.9505  -5.9495  -5.4615  -5.4588  -5.3174  -5.3153  -5.1852  -5.1846
    -5.1015  -5.1013  -4.9682  -4.9680  -4.4813  -4.4807  -4.4711  -4.4696
    -4.4307  -4.4298  -4.3507  -4.3505  -4.3418  -4.3410  -4.0611  -4.0610
    -4.0469  -4.0467  -3.9405  -3.9402  -3.8780  -3.8777  -3.7455  -3.7452
    -3.7168  -3.7167  -3.2922  -3.2918  -3.2306  -3.2301  -3.1897  -3.1893
    -3.0658  -3.0645  -2.7941  -2.7921  -2.7563  -2.7539  -2.7316  -2.7292
    -2.6154  -2.6153  -2.5633  -2.5633  -2.4568  -2.4564  -1.6627  -1.6626
    -1.4630  -1.4628  -0.1684  -0.1679   0.1420   0.1421   0.2525   0.2525
     0.9933   0.9947   1.0554   1.0562   1.1053   1.1070   1.4894   1.4897
     2.0313   2.0314   2.4574   2.4574   2.4682   2.4682   2.8506   2.8513
     2.9232   2.9242   3.2508   3.2510   3.4303   3.4309   3.9007   3.9013
     4.1541   4.1546

          k =-0.0002-0.5838 0.8315 ( 34440 PWs)   bands (ev):

   -82.4762 -82.4761 -79.7399 -79.7399 -51.3239 -51.3239 -51.2281 -51.2281
   -50.9777 -50.9776 -48.5680 -48.5680 -48.5474 -48.5473 -48.4447 -48.4446
   -23.5414 -23.5406 -23.4620 -23.4612 -23.3716 -23.3707 -23.3588 -23.3579
   -21.4128 -21.4120 -21.3118 -21.3110 -21.2563 -21.2555 -21.2409 -21.2401
   -18.5763 -18.5763 -18.1509 -18.1509 -17.7882 -17.7839 -17.7832 -17.7789
   -15.4802 -15.4756 -15.4510 -15.4464 -14.8982 -14.8941 -14.8940 -14.8900
   -12.8369 -12.8319 -12.7344 -12.7293 -11.4046 -11.4017 -11.3843 -11.3814
   -10.9143 -10.9123 -10.6909 -10.6886 -10.0453 -10.0419  -9.9460  -9.9421
    -9.3341  -9.3320  -9.1274  -9.1254  -9.0905  -9.0883  -8.9479  -8.9457
    -8.5805  -8.5795  -8.5763  -8.5759  -8.2597  -8.2580  -8.1344  -8.1323
    -7.7549  -7.7540  -7.4975  -7.4968  -7.3467  -7.3459  -7.2258  -7.2248
    -7.1692  -7.1687  -7.0743  -7.0736  -7.0354  -7.0331  -6.9872  -6.9850
    -6.7554  -6.7526  -6.7461  -6.7432  -6.4454  -6.4453  -6.0613  -6.0606
    -5.8938  -5.8928  -5.4701  -5.4674  -5.3329  -5.3310  -5.2033  -5.2026
    -5.0217  -5.0216  -4.9939  -4.9936  -4.8400  -4.8399  -4.6959  -4.6945
    -4.6851  -4.6836  -4.5477  -4.5474  -4.5121  -4.5115  -4.1994  -4.1992
    -3.9818  -3.9816  -3.9296  -3.9293  -3.7444  -3.7440  -3.6520  -3.6518
    -3.6254  -3.6251  -3.4784  -3.4779  -3.2954  -3.2950  -3.1762  -3.1758
    -3.0237  -3.0221  -2.8977  -2.8974  -2.8573  -2.8563  -2.7849  -2.7829
    -2.7795  -2.7779  -2.7181  -2.7176  -2.4310  -2.4307  -1.3066  -1.3065
    -1.1501  -1.1500  -0.1751  -0.1746   0.1712   0.1713   0.6487   0.6488
     0.8402   0.8403   1.0733   1.0753   1.1502   1.1519   1.4765   1.4767
     1.9622   1.9624   2.3869   2.3869   2.4034   2.4035   2.8784   2.8791
     2.9557   2.9567   3.1299   3.1300   3.7399   3.7405   4.2218   4.2224
     4.4625   4.4628

          k = 0.0004-0.5838-1.2473 ( 34464 PWs)   bands (ev):

   -82.4762 -82.4761 -79.7399 -79.7399 -51.3240 -51.3240 -51.2282 -51.2281
   -50.9776 -50.9775 -48.5680 -48.5680 -48.5474 -48.5473 -48.4447 -48.4447
   -23.5033 -23.5019 -23.5005 -23.4992 -23.3666 -23.3652 -23.3638 -23.3624
   -21.3658 -21.3650 -21.3625 -21.3617 -21.2499 -21.2490 -21.2485 -21.2476
   -18.3695 -18.3689 -18.3646 -18.3640 -17.7846 -17.7803 -17.7796 -17.7753
   -15.4788 -15.4742 -15.4490 -15.4445 -14.9169 -14.9129 -14.9128 -14.9089
   -12.8336 -12.8285 -12.7275 -12.7223 -11.4235 -11.4207 -11.4060 -11.4032
   -10.9218 -10.9197 -10.6778 -10.6755 -10.0138 -10.0106  -9.8864  -9.8825
    -9.2663  -9.2637  -9.0951  -9.0933  -9.0443  -9.0421  -8.9468  -8.9442
    -8.6238  -8.6227  -8.6202  -8.6196  -8.2577  -8.2560  -8.1124  -8.1103
    -7.6925  -7.6908  -7.5721  -7.5707  -7.3573  -7.3569  -7.2337  -7.2325
    -7.1397  -7.1395  -7.0981  -7.0967  -6.9219  -6.9195  -6.8879  -6.8864
    -6.8741  -6.8729  -6.8665  -6.8657  -6.1445  -6.1438  -5.8693  -5.8682
    -5.7955  -5.7953  -5.5320  -5.5319  -5.4621  -5.4595  -5.3465  -5.3447
    -5.1654  -5.1648  -5.0170  -5.0163  -4.8305  -4.8296  -4.8203  -4.8197
    -4.7946  -4.7941  -4.6462  -4.6450  -4.6216  -4.6215  -4.3350  -4.3348
    -3.9036  -3.9033  -3.8779  -3.8776  -3.7603  -3.7599  -3.6249  -3.6248
    -3.5314  -3.5312  -3.4338  -3.4335  -3.3129  -3.3129  -3.1855  -3.1852
    -3.1338  -3.1332  -2.9680  -2.9671  -2.9433  -2.9428  -2.8016  -2.8002
    -2.7984  -2.7967  -2.7312  -2.7304  -2.4174  -2.4172  -1.1492  -1.1491
    -0.9907  -0.9906  -0.1804  -0.1799   0.1896   0.1898   0.7291   0.7292
     0.8196   0.8198   1.0956   1.0977   1.1744   1.1761   1.4692   1.4695
     1.9392   1.9394   2.3551   2.3551   2.3739   2.3740   2.8953   2.8962
     2.9691   2.9703   3.0501   3.0503   4.1457   4.1463   4.2709   4.2716
     4.6205   4.6212

          k =-0.5000-0.0000-0.0006 ( 34522 PWs)   bands (ev):

   -82.4762 -82.4761 -79.7399 -79.7399 -51.3240 -51.3240 -51.2282 -51.2281
   -50.9780 -50.9779 -48.5680 -48.5680 -48.5474 -48.5474 -48.4446 -48.4446
   -23.5812 -23.5803 -23.4226 -23.4217 -23.3783 -23.3774 -23.3535 -23.3526
   -21.4583 -21.4576 -21.2622 -21.2614 -21.2550 -21.2542 -21.2315 -21.2307
   -18.7811 -18.7811 -17.9273 -17.9272 -17.7987 -17.7948 -17.7933 -17.7894
   -15.4795 -15.4764 -15.4603 -15.4572 -14.8403 -14.8364 -14.8358 -14.8320
   -12.8451 -12.8409 -12.7586 -12.7542 -11.3407 -11.3394 -11.3143 -11.3130
   -10.9230 -10.9228 -10.6961 -10.6956 -10.1555 -10.1521 -10.1044 -10.1006
    -9.5004  -9.4996  -9.2760  -9.2749  -9.1353  -9.1346  -8.9421  -8.9411
    -8.4990  -8.4983  -8.4235  -8.4232  -8.2663  -8.2657  -8.1962  -8.1957
    -7.8478  -7.8473  -7.3910  -7.3900  -7.3635  -7.3622  -7.3245  -7.3231
    -7.2644  -7.2641  -7.2528  -7.2522  -7.1736  -7.1726  -7.0562  -7.0562
    -7.0117  -7.0114  -6.3443  -6.3408  -6.3398  -6.3362  -6.1177  -6.1165
    -6.0845  -6.0831  -5.4515  -5.4496  -5.2932  -5.2914  -5.2534  -5.2531
    -5.0420  -5.0418  -5.0114  -5.0112  -4.3488  -4.3464  -4.3242  -4.3217
    -4.3139  -4.3136  -4.2897  -4.2895  -4.2327  -4.2324  -4.1280  -4.1279
    -3.9682  -3.9680  -3.9559  -3.9556  -3.9046  -3.9041  -3.8171  -3.8169
    -3.8125  -3.8123  -3.2733  -3.2729  -3.2034  -3.2031  -3.1513  -3.1505
    -2.9214  -2.9211  -2.7918  -2.7910  -2.7433  -2.7409  -2.7056  -2.7034
    -2.4873  -2.4872  -2.4532  -2.4531  -2.4163  -2.4162  -1.9105  -1.9103
    -1.6388  -1.6386  -0.1706  -0.1703   0.0252   0.0252   0.1292   0.1293
     0.9978   0.9991   1.0742   1.0755   1.1156   1.1158   1.4963   1.4965
     2.0676   2.0677   2.4837   2.4840   2.5184   2.5188   2.8328   2.8331
     2.9028   2.9032   3.2542   3.2548   3.3075   3.3075   3.9566   3.9570
     4.0554   4.0564

          k =-0.5001-0.0000 0.4152 ( 34472 PWs)   bands (ev):

   -82.4762 -82.4761 -79.7399 -79.7399 -51.3239 -51.3239 -51.2281 -51.2281
   -50.9779 -50.9778 -48.5680 -48.5680 -48.5474 -48.5474 -48.4446 -48.4446
   -23.5705 -23.5697 -23.4331 -23.4323 -23.3764 -23.3755 -23.3549 -23.3540
   -21.4464 -21.4456 -21.2707 -21.2699 -21.2607 -21.2599 -21.2342 -21.2333
   -18.7266 -18.7266 -17.9880 -17.9879 -17.7952 -17.7912 -17.7899 -17.7860
   -15.4766 -15.4735 -15.4599 -15.4568 -14.8598 -14.8559 -14.8554 -14.8517
   -12.8339 -12.8296 -12.7589 -12.7545 -11.3629 -11.3616 -11.3387 -11.3375
   -10.9050 -10.9042 -10.7099 -10.7092 -10.1024 -10.0991 -10.0670 -10.0632
    -9.4442  -9.4425  -9.2539  -9.2520  -9.1043  -9.1003  -8.9426  -8.9411
    -8.5299  -8.5256  -8.4810  -8.4724  -8.2387  -8.2335  -8.2035  -8.2018
    -7.8254  -7.8154  -7.4242  -7.4135  -7.3210  -7.3028  -7.2646  -7.2457
    -7.2379  -7.2262  -7.2192  -7.2042  -7.1898  -7.1467  -7.0385  -7.0299
    -6.8988  -6.8917  -6.4921  -6.4881  -6.4847  -6.4804  -6.0717  -6.0687
    -6.0421  -6.0376  -5.4475  -5.4413  -5.3318  -5.3279  -5.1617  -5.1578
    -5.0595  -5.0511  -5.0259  -5.0189  -4.4915  -4.4821  -4.4739  -4.4696
    -4.4223  -4.4191  -4.3776  -4.3766  -4.3175  -4.3141  -4.0642  -4.0638
    -4.0452  -4.0438  -3.9452  -3.9424  -3.8815  -3.8764  -3.7539  -3.7446
    -3.7245  -3.7076  -3.2962  -3.2844  -3.2391  -3.2143  -3.1965  -3.1913
    -3.0587  -3.0395  -2.8033  -2.7998  -2.7603  -2.7579  -2.7306  -2.7278
    -2.6157  -2.6091  -2.5785  -2.5760  -2.4461  -2.4455  -1.6627  -1.6625
    -1.4632  -1.4626  -0.1692  -0.1681   0.1417   0.1423   0.2524   0.2530
     0.9892   0.9942   1.0495   1.0540   1.1119   1.1133   1.4894   1.4905
     2.0308   2.0313   2.4478   2.4493   2.4763   2.4768   2.8496   2.8504
     2.9210   2.9243   3.2511   3.2570   3.3700   3.3712   4.0468   4.0772
     4.1773   4.2014

          k =-0.5002-0.0000 0.8309 ( 34474 PWs)   bands (ev):

   -82.4762 -82.4761 -79.7399 -79.7399 -51.3240 -51.3240 -51.2281 -51.2281
   -50.9778 -50.9777 -48.5680 -48.5680 -48.5474 -48.5474 -48.4447 -48.4447
   -23.5414 -23.5406 -23.4620 -23.4612 -23.3714 -23.3706 -23.3589 -23.3581
   -21.4128 -21.4120 -21.3118 -21.3110 -21.2563 -21.2555 -21.2409 -21.2401
   -18.5763 -18.5763 -18.1509 -18.1509 -17.7881 -17.7841 -17.7830 -17.7790
   -15.4701 -15.4670 -15.4598 -15.4567 -14.8981 -14.8942 -14.8939 -14.8901
   -12.8079 -12.8037 -12.7644 -12.7601 -11.4024 -11.4012 -11.3872 -11.3859
   -10.8602 -10.8590 -10.7500 -10.7492  -9.9953  -9.9922  -9.9840  -9.9807
    -9.3160  -9.3133  -9.2056  -9.2025  -9.0350  -9.0296  -8.9388  -8.9375
    -8.5967  -8.5923  -8.5774  -8.5697  -8.1987  -8.1970  -8.1961  -8.1930
    -7.7559  -7.7382  -7.5241  -7.5006  -7.3264  -7.2970  -7.2521  -7.2331
    -7.2046  -7.1463  -7.1127  -7.0882  -7.0167  -7.0127  -6.9887  -6.9750
    -6.7520  -6.7490  -6.7485  -6.7454  -6.4328  -6.4320  -6.0122  -6.0085
    -5.9769  -5.9756  -5.4371  -5.4297  -5.3611  -5.3538  -5.1544  -5.1446
    -5.0703  -5.0649  -4.9966  -4.9878  -4.8369  -4.8351  -4.7014  -4.6964
    -4.6850  -4.6822  -4.5462  -4.5350  -4.5193  -4.5174  -4.2046  -4.1958
    -3.9866  -3.9747  -3.9255  -3.9247  -3.7561  -3.7404  -3.6579  -3.6570
    -3.6251  -3.6117  -3.4903  -3.4858  -3.2882  -3.2806  -3.1865  -3.1792
    -2.9881  -2.9812  -2.9333  -2.9172  -2.8166  -2.8108  -2.8034  -2.7857
    -2.7814  -2.7802  -2.7710  -2.7684  -2.4151  -2.4140  -1.3067  -1.3064
    -1.1503  -1.1499  -0.1749  -0.1738   0.1717   0.1721   0.6483   0.6492
     0.8396   0.8403   1.0476   1.0494   1.1760   1.1784   1.4754   1.4763
     1.9624   1.9631   2.3863   2.3880   2.4018   2.4023   2.8778   2.8814
     2.9497   2.9543   3.1268   3.1366   3.6828   3.6928   4.3478   4.3794
     4.4940   4.5329

          k =-0.4996-0.0000-1.2479 ( 34464 PWs)   bands (ev):

   -82.4762 -82.4761 -79.7399 -79.7399 -51.3240 -51.3240 -51.2281 -51.2281
   -50.9777 -50.9776 -48.5680 -48.5680 -48.5474 -48.5474 -48.4447 -48.4447
   -23.5026 -23.5017 -23.5008 -23.5000 -23.3657 -23.3648 -23.3642 -23.3633
   -21.3658 -21.3649 -21.3625 -21.3617 -21.2498 -21.2489 -21.2486 -21.2478
   -18.3684 -18.3683 -18.3652 -18.3652 -17.7845 -17.7805 -17.7795 -17.7755
   -15.4656 -15.4625 -15.4610 -15.4579 -14.9168 -14.9130 -14.9128 -14.9090
   -12.7840 -12.7797 -12.7788 -12.7746 -11.4171 -11.4159 -11.4143 -11.4130
   -10.8060 -10.8058 -10.8020 -10.8018  -9.9432  -9.9404  -9.9381  -9.9353
    -9.2284  -9.2269  -9.1888  -9.1873  -8.9929  -8.9918  -8.9336  -8.9325
    -8.6324  -8.6323  -8.6249  -8.6249  -8.1855  -8.1851  -8.1817  -8.1812
    -7.6695  -7.6690  -7.6014  -7.6009  -7.3273  -7.3272  -7.2538  -7.2538
    -7.1504  -7.1503  -7.0980  -7.0979  -6.8999  -6.8989  -6.8959  -6.8949
    -6.8740  -6.8726  -6.8691  -6.8677  -6.0608  -6.0598  -5.9849  -5.9836
    -5.7863  -5.7861  -5.5264  -5.5262  -5.4289  -5.4270  -5.3716  -5.3696
    -5.0873  -5.0872  -5.0840  -5.0838  -4.8275  -4.8267  -4.8225  -4.8216
    -4.7666  -4.7665  -4.7106  -4.7105  -4.5865  -4.5864  -4.3352  -4.3350
    -3.8990  -3.8989  -3.8720  -3.8719  -3.7662  -3.7659  -3.6354  -3.6353
    -3.5258  -3.5255  -3.4381  -3.4379  -3.3046  -3.3046  -3.1916  -3.1913
    -3.1278  -3.1276  -2.9723  -2.9719  -2.8752  -2.8752  -2.8201  -2.8193
    -2.7988  -2.7968  -2.7964  -2.7943  -2.3975  -2.3974  -1.1492  -1.1491
    -0.9907  -0.9906  -0.1793  -0.1790   0.1906   0.1908   0.7289   0.7290
     0.8203   0.8204   1.0605   1.0619   1.2098   1.2110   1.4680   1.4682
     1.9398   1.9400   2.3624   2.3627   2.3649   2.3652   2.8988   2.8993
     2.9608   2.9612   3.0528   3.0529   4.1461   4.1462   4.1694   4.1696
     4.7135   4.7144

          k =-0.5000-0.5838-0.0006 ( 34496 PWs)   bands (ev):

   -82.4762 -82.4761 -79.7399 -79.7399 -51.3240 -51.3240 -51.2281 -51.2281
   -50.9779 -50.9779 -48.5680 -48.5680 -48.5474 -48.5473 -48.4447 -48.4446
   -23.5812 -23.5804 -23.4226 -23.4217 -23.3782 -23.3774 -23.3535 -23.3526
   -21.4583 -21.4576 -21.2622 -21.2614 -21.2550 -21.2542 -21.2315 -21.2307
   -18.7811 -18.7811 -17.9273 -17.9272 -17.7986 -17.7952 -17.7929 -17.7895
   -15.4798 -15.4792 -15.4574 -15.4568 -14.8402 -14.8372 -14.8350 -14.8321
   -12.8536 -12.8534 -12.7445 -12.7443 -11.3467 -11.3467 -11.3067 -11.3065
   -10.9562 -10.9562 -10.6443 -10.6443 -10.1871 -10.1870 -10.0875 -10.0874
    -9.5150  -9.5148  -9.3363  -9.3362  -9.0410  -9.0410  -8.8490  -8.8488
    -8.6916  -8.6916  -8.3829  -8.3829  -8.3082  -8.3082  -8.0956  -8.0956
    -7.8534  -7.8530  -7.3916  -7.3912  -7.3685  -7.3685  -7.3360  -7.3358
    -7.3031  -7.3031  -7.2060  -7.2059  -7.1399  -7.1399  -7.0741  -7.0740
    -7.0272  -7.0269  -6.3457  -6.3442  -6.3368  -6.3354  -6.2698  -6.2698
    -5.8633  -5.8633  -5.4571  -5.4570  -5.3300  -5.3300  -5.2850  -5.2849
    -5.1608  -5.1608  -4.8798  -4.8798  -4.3612  -4.3612  -4.3194  -4.3194
    -4.3134  -4.3132  -4.2964  -4.2962  -4.2179  -4.2178  -4.1381  -4.1380
    -3.9726  -3.9724  -3.9568  -3.9565  -3.8941  -3.8940  -3.8138  -3.8135
    -3.8112  -3.8110  -3.2742  -3.2739  -3.2070  -3.2067  -3.1262  -3.1262
    -2.9241  -2.9240  -2.8360  -2.8359  -2.7268  -2.7261  -2.7183  -2.7176
    -2.4637  -2.4637  -2.4548  -2.4547  -2.4164  -2.4163  -1.9105  -1.9104
    -1.6387  -1.6385  -0.1635  -0.1634   0.0239   0.0240   0.1310   0.1312
     0.9124   0.9125   1.0914   1.0915   1.1841   1.1842   1.4980   1.4982
     2.0701   2.0701   2.4991   2.4992   2.5032   2.5033   2.7517   2.7517
     2.9781   2.9781   3.3089   3.3089   3.4015   3.4015   3.5384   3.5384
     4.3730   4.3921

          k =-0.5001-0.5838 0.4152 ( 34488 PWs)   bands (ev):

   -82.4762 -82.4761 -79.7399 -79.7399 -51.3240 -51.3240 -51.2281 -51.2281
   -50.9779 -50.9778 -48.5680 -48.5680 -48.5474 -48.5474 -48.4447 -48.4447
   -23.5705 -23.5697 -23.4331 -23.4323 -23.3764 -23.3755 -23.3549 -23.3540
   -21.4464 -21.4456 -21.2707 -21.2699 -21.2607 -21.2599 -21.2342 -21.2333
   -18.7266 -18.7266 -17.9880 -17.9880 -17.7952 -17.7916 -17.7896 -17.7860
   -15.4768 -15.4761 -15.4573 -15.4565 -14.8598 -14.8567 -14.8547 -14.8517
   -12.8412 -12.8409 -12.7463 -12.7461 -11.3688 -11.3687 -11.3323 -11.3322
   -10.9342 -10.9342 -10.6647 -10.6646 -10.1318 -10.1317 -10.0496 -10.0494
    -9.4579  -9.4577  -9.3084  -9.3084  -9.0156  -9.0156  -8.8395  -8.8394
    -8.7176  -8.7176  -8.4479  -8.4479  -8.2714  -8.2714  -8.1121  -8.1120
    -7.8260  -7.8255  -7.4285  -7.4282  -7.3020  -7.3015  -7.2816  -7.2807
    -7.2518  -7.2517  -7.1755  -7.1752  -7.1534  -7.1524  -7.0396  -7.0391
    -6.9037  -6.9036  -6.4909  -6.4881  -6.4859  -6.4830  -6.2113  -6.2113
    -5.8348  -5.8347  -5.4587  -5.4587  -5.3549  -5.3544  -5.2159  -5.2158
    -5.1493  -5.1489  -4.8895  -4.8892  -4.5312  -4.5311  -4.4425  -4.4425
    -4.3942  -4.3938  -4.3746  -4.3744  -4.3409  -4.3408  -4.0774  -4.0772
    -4.0330  -4.0329  -3.9456  -3.9453  -3.8726  -3.8724  -3.7566  -3.7564
    -3.7054  -3.7054  -3.2876  -3.2873  -3.2536  -3.2534  -3.1664  -3.1662
    -3.0359  -3.0358  -2.8482  -2.8481  -2.7441  -2.7425  -2.7397  -2.7383
    -2.6134  -2.6134  -2.5633  -2.5632  -2.4401  -2.4400  -1.6628  -1.6627
    -1.4629  -1.4628  -0.1638  -0.1637   0.1418   0.1420   0.2532   0.2532
     0.9478   0.9479   1.0207   1.0207   1.1867   1.1867   1.4919   1.4921
     2.0322   2.0322   2.4605   2.4606   2.4650   2.4651   2.7844   2.7845
     2.9832   2.9833   3.2544   3.2545   3.5098   3.5099   3.6638   3.6638
     4.4428   4.4430

          k =-0.5002-0.5838 0.8309 ( 34450 PWs)   bands (ev):

   -82.4762 -82.4761 -79.7399 -79.7399 -51.3240 -51.3239 -51.2281 -51.2281
   -50.9777 -50.9777 -48.5680 -48.5680 -48.5474 -48.5474 -48.4447 -48.4447
   -23.5414 -23.5406 -23.4620 -23.4612 -23.3714 -23.3706 -23.3589 -23.3580
   -21.4128 -21.4120 -21.3118 -21.3110 -21.2563 -21.2555 -21.2409 -21.2401
   -18.5763 -18.5763 -18.1509 -18.1509 -17.7881 -17.7842 -17.7828 -17.7790
   -15.4700 -15.4689 -15.4580 -15.4568 -14.8981 -14.8947 -14.8935 -14.8902
   -12.8117 -12.8113 -12.7562 -12.7558 -11.4071 -11.4070 -11.3843 -11.3841
   -10.8766 -10.8766 -10.7211 -10.7211 -10.0175 -10.0172  -9.9703  -9.9700
    -9.3352  -9.3350  -9.2432  -9.2431  -8.9508  -8.9508  -8.8064  -8.8062
    -8.7815  -8.7815  -8.5723  -8.5723  -8.2146  -8.2146  -8.1359  -8.1359
    -7.7526  -7.7521  -7.5227  -7.5222  -7.2924  -7.2918  -7.2558  -7.2541
    -7.1719  -7.1706  -7.0946  -7.0943  -7.0156  -7.0152  -6.9900  -6.9895
    -6.7556  -6.7548  -6.7435  -6.7426  -6.4305  -6.4303  -6.1080  -6.1078
    -5.8420  -5.8419  -5.4600  -5.4599  -5.3567  -5.3563  -5.2158  -5.2157
    -5.0450  -5.0445  -4.9961  -4.9955  -4.7647  -4.7644  -4.7377  -4.7376
    -4.6583  -4.6582  -4.5936  -4.5934  -4.4895  -4.4888  -4.1967  -4.1965
    -3.9822  -3.9821  -3.9263  -3.9263  -3.7508  -3.7506  -3.6464  -3.6459
    -3.6218  -3.6216  -3.4929  -3.4926  -3.2883  -3.2881  -3.1789  -3.1786
    -2.9747  -2.9743  -2.9385  -2.9382  -2.8504  -2.8502  -2.7930  -2.7924
    -2.7681  -2.7674  -2.7464  -2.7461  -2.4156  -2.4155  -1.3066  -1.3065
    -1.1501  -1.1500  -0.1730  -0.1729   0.1715   0.1717   0.6486   0.6487
     0.8414   0.8415   1.0248   1.0249   1.1990   1.1990   1.4781   1.4783
     1.9626   1.9628   2.3925   2.3925   2.3975   2.3976   2.8491   2.8494
     2.9824   2.9824   3.1297   3.1299   3.8103   3.8104   3.9997   3.9997
     4.6369   4.6373

          k =-0.4996-0.5838-1.2479 ( 34400 PWs)   bands (ev):

   -82.4762 -82.4761 -79.7399 -79.7399 -51.3239 -51.3239 -51.2281 -51.2281
   -50.9776 -50.9775 -48.5680 -48.5680 -48.5473 -48.5473 -48.4447 -48.4446
   -23.5026 -23.5017 -23.5008 -23.4999 -23.3657 -23.3648 -23.3641 -23.3633
   -21.3658 -21.3649 -21.3625 -21.3617 -21.2498 -21.2489 -21.2486 -21.2478
   -18.3684 -18.3683 -18.3652 -18.3652 -17.7845 -17.7805 -17.7795 -17.7755
   -15.4656 -15.4626 -15.4609 -15.4578 -14.9168 -14.9130 -14.9128 -14.9090
   -12.7850 -12.7827 -12.7754 -12.7732 -11.4197 -11.4189 -11.4155 -11.4146
   -10.8130 -10.8130 -10.7846 -10.7846  -9.9564  -9.9560  -9.9325  -9.9321
    -9.2651  -9.2650  -9.2055  -9.2054  -8.8727  -8.8726  -8.8646  -8.8645
    -8.7511  -8.7511  -8.6657  -8.6657  -8.1751  -8.1750  -8.1564  -8.1564
    -7.6740  -7.6736  -7.6110  -7.6106  -7.2937  -7.2936  -7.2750  -7.2749
    -7.1321  -7.1318  -7.1126  -7.1123  -6.9031  -6.9027  -6.8959  -6.8953
    -6.8764  -6.8743  -6.8726  -6.8705  -6.0919  -6.0918  -5.9249  -5.9249
    -5.7955  -5.7954  -5.5242  -5.5242  -5.4585  -5.4585  -5.3501  -5.3501
    -5.1938  -5.1937  -4.9760  -4.9759  -4.8546  -4.8545  -4.8116  -4.8114
    -4.7619  -4.7618  -4.6900  -4.6899  -4.6082  -4.6081  -4.3248  -4.3246
    -3.8995  -3.8994  -3.8739  -3.8739  -3.7687  -3.7685  -3.6306  -3.6305
    -3.5310  -3.5308  -3.4357  -3.4355  -3.3112  -3.3111  -3.1895  -3.1892
    -3.1284  -3.1282  -2.9517  -2.9515  -2.9284  -2.9284  -2.8241  -2.8240
    -2.7793  -2.7791  -2.7695  -2.7694  -2.4027  -2.4026  -1.1491  -1.1490
    -0.9907  -0.9905  -0.1794  -0.1793   0.1900   0.1901   0.7293   0.7295
     0.8206   0.8207   1.0644   1.0645   1.2061   1.2061   1.4704   1.4706
     1.9394   1.9396   2.3634   2.3634   2.3646   2.3647   2.9009   2.9010
     2.9596   2.9596   3.0528   3.0529   4.2655   4.2656   4.2667   4.2668
     4.4642   4.4662

 ------ SPIN DOWN ----------


          k = 0.0000 0.0000 0.0000 ( 34505 PWs)   bands (ev):

   -82.4763 -82.4761 -79.7388 -79.7385 -51.3239 -51.3238 -51.2281 -51.2280
   -50.9783 -50.9782 -48.5669 -48.5667 -48.5464 -48.5461 -48.4434 -48.4431
   -23.5819 -23.5796 -23.4234 -23.4207 -23.3792 -23.3765 -23.3545 -23.3516
   -21.4585 -21.4574 -21.2624 -21.2612 -21.2552 -21.2540 -21.2317 -21.2306
   -18.7831 -18.7788 -17.9286 -17.9255 -17.7991 -17.7950 -17.7928 -17.7892
   -15.5018 -15.4621 -15.4570 -15.4518 -14.8408 -14.8368 -14.8350 -14.8318
   -12.9338 -12.7663 -12.7466 -12.7418 -11.3714 -11.3209 -11.3067 -11.3064
   -11.1125 -10.7738 -10.6831 -10.6016 -10.2679 -10.1393 -10.0981 -10.0795
    -9.6331  -9.4123  -9.3211  -9.2657  -9.1058  -9.0354  -8.9742  -8.7253
    -8.7056  -8.6767  -8.4466  -8.3261  -8.3252  -8.2921  -8.1053  -8.0909
    -7.8728  -7.8267  -7.4356  -7.3777  -7.3765  -7.3753  -7.3530  -7.2921
    -7.2864  -7.2585  -7.2230  -7.2155  -7.1406  -7.1384  -7.1049  -7.0938
    -7.0216  -7.0034  -6.3731  -6.3457  -6.3428  -6.3378  -6.3342  -6.1408
    -5.9548  -5.7582  -5.5400  -5.3994  -5.3423  -5.3357  -5.3332  -5.2789
    -5.2362  -5.0237  -4.8895  -4.8758  -4.3817  -4.3497  -4.3417  -4.3393
    -4.3147  -4.3056  -4.2820  -4.2548  -4.2338  -4.2109  -4.1657  -4.1085
    -3.9881  -3.9571  -3.9560  -3.9543  -3.9236  -3.8681  -3.8378  -3.8270
    -3.7960  -3.7878  -3.3285  -3.2942  -3.2690  -3.2513  -3.1437  -2.9529
    -2.8983  -2.8426  -2.8335  -2.8187  -2.7407  -2.7273  -2.7116  -2.6991
    -2.6662  -2.4742  -2.4420  -2.4320  -2.4098  -2.3719  -1.9097  -1.9094
    -1.6380  -1.6365  -0.2637  -0.0514   0.0176   0.0346   0.1255   0.1326
     0.9036   0.9229   1.0556   1.1058   1.1508   1.2307   1.4767   1.5215
     2.0610   2.0781   2.4825   2.4850   2.5131   2.5241   2.7460   2.7501
     2.9095   3.0563   3.1004   3.2932   3.3220   3.6028   3.7131   3.9390
     4.1119   4.1334

          k =-0.0001 0.0000 0.4158 ( 34453 PWs)   bands (ev):

   -82.4763 -82.4761 -79.7388 -79.7385 -51.3239 -51.3237 -51.2281 -51.2280
   -50.9782 -50.9781 -48.5670 -48.5667 -48.5464 -48.5461 -48.4434 -48.4431
   -23.5713 -23.5689 -23.4340 -23.4313 -23.3774 -23.3746 -23.3559 -23.3530
   -21.4465 -21.4455 -21.2709 -21.2697 -21.2609 -21.2597 -21.2343 -21.2332
   -18.7285 -18.7243 -17.9893 -17.9862 -17.7955 -17.7914 -17.7896 -17.7858
   -15.4978 -15.4633 -15.4551 -15.4500 -14.8603 -14.8564 -14.8547 -14.8515
   -12.9183 -12.7590 -12.7547 -12.7355 -11.3935 -11.3441 -11.3347 -11.3310
   -11.0856 -10.7560 -10.6734 -10.6514 -10.2154 -10.0816 -10.0607 -10.0429
    -9.5758  -9.3884  -9.2387  -9.2311  -9.0792  -9.0290  -8.9593  -8.7315
    -8.7313  -8.7031  -8.4946  -8.4263  -8.2847  -8.2433  -8.1263  -8.0938
    -7.8443  -7.7995  -7.4642  -7.3604  -7.3544  -7.3078  -7.2803  -7.2663
    -7.2663  -7.2091  -7.1849  -7.1827  -7.1653  -7.1478  -7.0847  -6.9890
    -6.9108  -6.9037  -6.4992  -6.4888  -6.4852  -6.4786  -6.2997  -6.0909
    -5.9214  -5.7296  -5.5345  -5.4063  -5.3920  -5.3269  -5.3207  -5.2233
    -5.1496  -5.0317  -4.9082  -4.8780  -4.5451  -4.5164  -4.4601  -4.4171
    -4.3981  -4.3959  -4.3722  -4.3718  -4.3570  -4.3351  -4.0699  -4.0688
    -4.0560  -4.0250  -3.9515  -3.9350  -3.8871  -3.8656  -3.7736  -3.7273
    -3.7156  -3.7078  -3.3107  -3.2814  -3.2641  -3.2557  -3.2283  -3.1381
    -3.1124  -2.8556  -2.8380  -2.8143  -2.7464  -2.7449  -2.7422  -2.7195
    -2.6401  -2.6263  -2.5737  -2.5711  -2.5549  -2.3636  -1.6623  -1.6609
    -1.4624  -1.4607  -0.2643  -0.0519   0.1399   0.1439   0.2499   0.2583
     0.9389   0.9497   1.0082   1.0280   1.1307   1.2480   1.4742   1.5107
     2.0257   2.0385   2.4446   2.4519   2.4691   2.4840   2.7712   2.7878
     2.9251   3.0557   3.2120   3.2446   3.2689   3.7252   3.8099   4.0763
     4.2068   4.2504

          k =-0.0002 0.0000 0.8315 ( 34470 PWs)   bands (ev):

   -82.4763 -82.4761 -79.7388 -79.7385 -51.3239 -51.3238 -51.2282 -51.2280
   -50.9781 -50.9780 -48.5670 -48.5667 -48.5464 -48.5461 -48.4434 -48.4431
   -23.5422 -23.5398 -23.4629 -23.4603 -23.3724 -23.3696 -23.3599 -23.3571
   -21.4129 -21.4119 -21.3119 -21.3108 -21.2565 -21.2553 -21.2411 -21.2399
   -18.5781 -18.5740 -18.1524 -18.1490 -17.7883 -17.7841 -17.7829 -17.7788
   -15.4879 -15.4678 -15.4511 -15.4463 -14.8984 -14.8946 -14.8935 -14.8900
   -12.8791 -12.7859 -12.7390 -12.7245 -11.4299 -11.3931 -11.3873 -11.3789
   -11.0101 -10.7671 -10.7164 -10.6600 -10.1077 -10.0267  -9.9605  -9.9309
    -9.4438  -9.3348  -9.1581  -9.0425  -9.0385  -8.9806  -8.9138  -8.7988
    -8.7692  -8.7288  -8.6317  -8.5438  -8.2568  -8.1802  -8.1640  -8.0808
    -7.7701  -7.7249  -7.5482  -7.4756  -7.3178  -7.3029  -7.2681  -7.2607
    -7.1862  -7.1634  -7.1079  -7.0612  -7.0122  -7.0044  -6.9955  -6.9813
    -6.7619  -6.7505  -6.7463  -6.7401  -6.4806  -6.3953  -6.1902  -5.9966
    -5.9124  -5.7383  -5.5233  -5.4185  -5.4128  -5.3379  -5.3150  -5.1181
    -5.0570  -5.0280  -5.0237  -4.9094  -4.8807  -4.7359  -4.7267  -4.7152
    -4.6663  -4.6519  -4.5865  -4.5654  -4.5203  -4.4810  -4.2319  -4.1751
    -3.9931  -3.9682  -3.9448  -3.9105  -3.7563  -3.7340  -3.6665  -3.6364
    -3.6246  -3.6164  -3.5296  -3.4426  -3.3139  -3.2632  -3.2323  -3.1379
    -3.0739  -2.9589  -2.9036  -2.8940  -2.8380  -2.8340  -2.8059  -2.7860
    -2.7744  -2.7578  -2.7546  -2.7140  -2.5249  -2.3493  -1.3065  -1.3045
    -1.1496  -1.1479  -0.2772  -0.0565   0.1706   0.1721   0.6466   0.6543
     0.8366   0.8449   1.0063   1.0236   1.1268   1.2830   1.4674   1.4880
     1.9589   1.9680   2.3807   2.3915   2.3931   2.4119   2.8031   2.8779
     2.9525   3.0328   3.1269   3.1312   3.5385   4.0516   4.1027   4.4165
     4.4834   4.5666

          k = 0.0004-0.0000-1.2473 ( 34392 PWs)   bands (ev):

   -82.4763 -82.4761 -79.7388 -79.7385 -51.3239 -51.3237 -51.2282 -51.2280
   -50.9780 -50.9778 -48.5670 -48.5667 -48.5463 -48.5461 -48.4434 -48.4431
   -23.5034 -23.5016 -23.5009 -23.4991 -23.3666 -23.3651 -23.3638 -23.3624
   -21.3659 -21.3648 -21.3627 -21.3615 -21.2499 -21.2487 -21.2487 -21.2476
   -18.3706 -18.3669 -18.3662 -18.3625 -17.7846 -17.7803 -17.7796 -17.7753
   -15.4789 -15.4741 -15.4491 -15.4444 -14.9170 -14.9130 -14.9128 -14.9089
   -12.8347 -12.8257 -12.7291 -12.7206 -11.4363 -11.4316 -11.4068 -11.4031
   -10.9106 -10.8844 -10.6907 -10.6599 -10.0458 -10.0186  -9.8959  -9.8759
    -9.3584  -9.3118  -9.1113  -9.0280  -8.8915  -8.8829  -8.8577  -8.8500
    -8.8414  -8.7931  -8.7074  -8.6154  -8.2332  -8.2083  -8.1091  -8.0954
    -7.6930  -7.6429  -7.6311  -7.5752  -7.3140  -7.2967  -7.2900  -7.2729
    -7.1941  -7.1769  -7.0566  -7.0350  -6.9239  -6.9173  -6.8890  -6.8828
    -6.8756  -6.8727  -6.8713  -6.8691  -6.2218  -6.0314  -5.9130  -5.8433
    -5.7971  -5.7734  -5.5328  -5.5183  -5.5167  -5.4234  -5.4062  -5.3092
    -5.2988  -5.0776  -5.0180  -4.9338  -4.9052  -4.8364  -4.8247  -4.8086
    -4.7985  -4.7230  -4.6743  -4.6669  -4.6555  -4.5691  -4.3323  -4.3312
    -3.9096  -3.8915  -3.8739  -3.8724  -3.7687  -3.7615  -3.6671  -3.5970
    -3.5430  -3.5170  -3.4555  -3.4099  -3.3320  -3.2906  -3.2277  -3.1567
    -3.1514  -3.1032  -2.9987  -2.9622  -2.9303  -2.8758  -2.8498  -2.8076
    -2.7867  -2.7841  -2.7622  -2.7292  -2.4848  -2.3423  -1.1495  -1.1463
    -0.9906  -0.9876  -0.2864  -0.0597   0.1884   0.1917   0.7266   0.7323
     0.8147   0.8317   1.0302   1.0939   1.1011   1.3045   1.4633   1.4760
     1.9351   1.9463   2.3529   2.3560   2.3720   2.3723   2.8307   2.9504
     2.9680   2.9732   3.0517   3.0532   4.0103   4.0132   4.4888   4.4907
     4.5791   4.5891

          k =-0.0000-0.5838 0.0000 ( 34458 PWs)   bands (ev):

   -82.4762 -82.4761 -79.7388 -79.7385 -51.3239 -51.3237 -51.2281 -51.2279
   -50.9783 -50.9781 -48.5669 -48.5667 -48.5463 -48.5461 -48.4433 -48.4431
   -23.5812 -23.5803 -23.4225 -23.4217 -23.3783 -23.3775 -23.3534 -23.3525
   -21.4583 -21.4575 -21.2622 -21.2614 -21.2550 -21.2542 -21.2315 -21.2307
   -18.7809 -18.7809 -17.9271 -17.9270 -17.7986 -17.7944 -17.7936 -17.7895
   -15.4843 -15.4798 -15.4568 -15.4523 -14.8403 -14.8362 -14.8360 -14.8320
   -12.8483 -12.8432 -12.7565 -12.7514 -11.3416 -11.3385 -11.3152 -11.3121
   -10.8987 -10.8968 -10.7317 -10.7294 -10.1333 -10.1296 -10.1183 -10.1144
    -9.4994  -9.4984  -9.2215  -9.2196  -9.1932  -9.1910  -8.9473  -8.9455
    -8.4685  -8.4682  -8.4511  -8.4503  -8.2437  -8.2419  -8.2128  -8.2108
    -7.8506  -7.8499  -7.3879  -7.3871  -7.3711  -7.3691  -7.3116  -7.3104
    -7.2882  -7.2867  -7.2322  -7.2311  -7.1773  -7.1751  -7.0568  -7.0565
    -7.0127  -7.0123  -6.3438  -6.3403  -6.3401  -6.3366  -6.1951  -6.1946
    -5.9918  -5.9910  -5.4504  -5.4476  -5.3145  -5.3123  -5.2512  -5.2507
    -5.0897  -5.0895  -4.9649  -4.9646  -4.3457  -4.3438  -4.3281  -4.3264
    -4.3195  -4.3189  -4.2830  -4.2826  -4.2203  -4.2201  -4.1393  -4.1392
    -3.9802  -3.9796  -3.9536  -3.9532  -3.8921  -3.8920  -3.8274  -3.8268
    -3.7933  -3.7929  -3.2786  -3.2781  -3.2113  -3.2110  -3.1497  -3.1483
    -2.9260  -2.9258  -2.7888  -2.7867  -2.7349  -2.7324  -2.7141  -2.7116
    -2.4760  -2.4756  -2.4509  -2.4507  -2.4262  -2.4261  -1.9094  -1.9094
    -1.6371  -1.6371  -0.1690  -0.1686   0.0262   0.0262   0.1292   0.1295
     0.9892   0.9913   1.0835   1.0853   1.1150   1.1152   1.4960   1.4961
     2.0688   2.0688   2.4979   2.4979   2.5045   2.5045   2.8343   2.8352
     2.9034   2.9043   3.3000   3.3004   3.3194   3.3197   3.7804   3.7811
     4.0386   4.0394

          k =-0.0001-0.5838 0.4158 ( 34478 PWs)   bands (ev):

   -82.4763 -82.4761 -79.7388 -79.7385 -51.3239 -51.3237 -51.2281 -51.2280
   -50.9783 -50.9781 -48.5670 -48.5667 -48.5464 -48.5461 -48.4434 -48.4431
   -23.5705 -23.5697 -23.4331 -23.4322 -23.3765 -23.3756 -23.3548 -23.3539
   -21.4464 -21.4456 -21.2707 -21.2699 -21.2607 -21.2599 -21.2341 -21.2333
   -18.7264 -18.7264 -17.9878 -17.9877 -17.7952 -17.7910 -17.7902 -17.7860
   -15.4830 -15.4784 -15.4549 -15.4504 -14.8598 -14.8558 -14.8556 -14.8516
   -12.8442 -12.8392 -12.7489 -12.7438 -11.3638 -11.3608 -11.3390 -11.3360
   -10.9025 -10.9005 -10.7178 -10.7155 -10.1055 -10.1019 -10.0622 -10.0582
    -9.4484  -9.4471  -9.1907  -9.1888  -9.1631  -9.1608  -8.9484  -8.9466
    -8.5010  -8.5008  -8.4960  -8.4952  -8.2539  -8.2522  -8.1835  -8.1815
    -7.8243  -7.8236  -7.4061  -7.4056  -7.3444  -7.3426  -7.2500  -7.2490
    -7.2252  -7.2243  -7.2027  -7.2026  -7.1699  -7.1693  -7.0243  -7.0238
    -6.9086  -6.9085  -6.4909  -6.4878  -6.4851  -6.4819  -6.1416  -6.1409
    -5.9504  -5.9495  -5.4615  -5.4587  -5.3174  -5.3152  -5.1852  -5.1847
    -5.1015  -5.1013  -4.9684  -4.9681  -4.4812  -4.4807  -4.4710  -4.4697
    -4.4308  -4.4298  -4.3508  -4.3503  -4.3417  -4.3410  -4.0610  -4.0610
    -4.0468  -4.0466  -3.9405  -3.9402  -3.8780  -3.8777  -3.7452  -3.7450
    -3.7166  -3.7165  -3.2922  -3.2918  -3.2306  -3.2301  -3.1897  -3.1894
    -3.0658  -3.0645  -2.7940  -2.7921  -2.7563  -2.7539  -2.7315  -2.7293
    -2.6151  -2.6150  -2.5628  -2.5628  -2.4567  -2.4564  -1.6617  -1.6616
    -1.4615  -1.4614  -0.1677  -0.1673   0.1417   0.1420   0.2532   0.2533
     0.9936   0.9948   1.0555   1.0566   1.1053   1.1072   1.4903   1.4903
     2.0319   2.0320   2.4574   2.4574   2.4682   2.4682   2.8506   2.8515
     2.9233   2.9242   3.2505   3.2506   3.4302   3.4309   3.9007   3.9013
     4.1539   4.1547

          k =-0.0002-0.5838 0.8315 ( 34440 PWs)   bands (ev):

   -82.4763 -82.4761 -79.7388 -79.7385 -51.3239 -51.3237 -51.2282 -51.2280
   -50.9780 -50.9779 -48.5670 -48.5667 -48.5463 -48.5461 -48.4434 -48.4431
   -23.5414 -23.5406 -23.4620 -23.4611 -23.3716 -23.3707 -23.3588 -23.3579
   -21.4128 -21.4120 -21.3118 -21.3110 -21.2563 -21.2555 -21.2409 -21.2401
   -18.5761 -18.5761 -18.1507 -18.1506 -17.7882 -17.7839 -17.7832 -17.7789
   -15.4802 -15.4756 -15.4510 -15.4464 -14.8982 -14.8941 -14.8940 -14.8900
   -12.8369 -12.8319 -12.7344 -12.7293 -11.4046 -11.4017 -11.3843 -11.3814
   -10.9143 -10.9123 -10.6909 -10.6886 -10.0453 -10.0419  -9.9460  -9.9421
    -9.3341  -9.3320  -9.1274  -9.1255  -9.0906  -9.0881  -8.9478  -8.9459
    -8.5804  -8.5795  -8.5763  -8.5759  -8.2596  -8.2580  -8.1344  -8.1323
    -7.7549  -7.7540  -7.4975  -7.4968  -7.3467  -7.3459  -7.2258  -7.2248
    -7.1691  -7.1687  -7.0743  -7.0736  -7.0354  -7.0331  -6.9872  -6.9850
    -6.7554  -6.7526  -6.7461  -6.7432  -6.4456  -6.4455  -6.0612  -6.0606
    -5.8938  -5.8928  -5.4701  -5.4673  -5.3330  -5.3309  -5.2032  -5.2028
    -5.0219  -5.0213  -4.9942  -4.9936  -4.8398  -4.8397  -4.6959  -4.6945
    -4.6852  -4.6836  -4.5474  -4.5471  -4.5117  -4.5114  -4.1995  -4.1991
    -3.9819  -3.9817  -3.9299  -3.9294  -3.7445  -3.7441  -3.6518  -3.6516
    -3.6252  -3.6250  -3.4783  -3.4779  -3.2953  -3.2950  -3.1762  -3.1759
    -3.0233  -3.0223  -2.8973  -2.8969  -2.8568  -2.8561  -2.7849  -2.7829
    -2.7794  -2.7778  -2.7180  -2.7174  -2.4310  -2.4307  -1.3055  -1.3054
    -1.1487  -1.1486  -0.1744  -0.1740   0.1709   0.1712   0.6491   0.6492
     0.8405   0.8406   1.0732   1.0755   1.1503   1.1521   1.4773   1.4774
     1.9633   1.9634   2.3869   2.3869   2.4034   2.4035   2.8784   2.8792
     2.9558   2.9566   3.1293   3.1294   3.7398   3.7406   4.2218   4.2224
     4.4624   4.4629

          k = 0.0004-0.5838-1.2473 ( 34464 PWs)   bands (ev):

   -82.4763 -82.4761 -79.7388 -79.7385 -51.3239 -51.3238 -51.2282 -51.2280
   -50.9780 -50.9778 -48.5670 -48.5668 -48.5463 -48.5461 -48.4434 -48.4432
   -23.5033 -23.5020 -23.5005 -23.4992 -23.3666 -23.3652 -23.3638 -23.3624
   -21.3658 -21.3650 -21.3625 -21.3617 -21.2499 -21.2490 -21.2485 -21.2476
   -18.3696 -18.3693 -18.3639 -18.3635 -17.7846 -17.7803 -17.7796 -17.7753
   -15.4788 -15.4742 -15.4490 -15.4445 -14.9169 -14.9129 -14.9128 -14.9089
   -12.8336 -12.8285 -12.7275 -12.7223 -11.4235 -11.4207 -11.4060 -11.4031
   -10.9217 -10.9197 -10.6778 -10.6754 -10.0138 -10.0106  -9.8864  -9.8825
    -9.2662  -9.2636  -9.0951  -9.0933  -9.0444  -9.0418  -8.9466  -8.9445
    -8.6237  -8.6227  -8.6202  -8.6196  -8.2577  -8.2560  -8.1124  -8.1103
    -7.6924  -7.6908  -7.5722  -7.5707  -7.3573  -7.3569  -7.2337  -7.2325
    -7.1398  -7.1394  -7.0982  -7.0966  -6.9219  -6.9195  -6.8879  -6.8864
    -6.8741  -6.8729  -6.8665  -6.8657  -6.1447  -6.1441  -5.8692  -5.8682
    -5.7962  -5.7960  -5.5315  -5.5307  -5.4616  -5.4596  -5.3467  -5.3445
    -5.1656  -5.1649  -5.0170  -5.0165  -4.8304  -4.8297  -4.8205  -4.8196
    -4.7944  -4.7940  -4.6456  -4.6453  -4.6213  -4.6211  -4.3352  -4.3346
    -3.9038  -3.9035  -3.8783  -3.8778  -3.7602  -3.7598  -3.6248  -3.6246
    -3.5316  -3.5313  -3.4340  -3.4337  -3.3129  -3.3125  -3.1855  -3.1852
    -3.1328  -3.1327  -2.9679  -2.9669  -2.9427  -2.9424  -2.8015  -2.8001
    -2.7984  -2.7967  -2.7312  -2.7303  -2.4174  -2.4172  -1.1480  -1.1479
    -0.9892  -0.9891  -0.1797  -0.1793   0.1894   0.1897   0.7293   0.7295
     0.8197   0.8198   1.0955   1.0979   1.1745   1.1763   1.4701   1.4701
     1.9407   1.9408   2.3551   2.3551   2.3739   2.3739   2.8954   2.8962
     2.9694   2.9701   3.0493   3.0495   4.1456   4.1465   4.2709   4.2716
     4.6205   4.6211

          k =-0.5000-0.0000-0.0006 ( 34522 PWs)   bands (ev):

   -82.4763 -82.4761 -79.7388 -79.7385 -51.3239 -51.3238 -51.2282 -51.2280
   -50.9783 -50.9782 -48.5670 -48.5667 -48.5464 -48.5461 -48.4433 -48.4431
   -23.5811 -23.5803 -23.4225 -23.4217 -23.3783 -23.3774 -23.3534 -23.3526
   -21.4583 -21.4576 -21.2622 -21.2614 -21.2550 -21.2542 -21.2315 -21.2307
   -18.7809 -18.7809 -17.9271 -17.9270 -17.7987 -17.7948 -17.7933 -17.7894
   -15.4795 -15.4764 -15.4603 -15.4572 -14.8403 -14.8364 -14.8358 -14.8320
   -12.8451 -12.8409 -12.7586 -12.7542 -11.3407 -11.3394 -11.3143 -11.3130
   -10.9230 -10.9228 -10.6961 -10.6956 -10.1555 -10.1521 -10.1044 -10.1006
    -9.5003  -9.4996  -9.2760  -9.2750  -9.1352  -9.1345  -8.9421  -8.9411
    -8.4989  -8.4983  -8.4235  -8.4231  -8.2663  -8.2657  -8.1962  -8.1957
    -7.8478  -7.8473  -7.3910  -7.3900  -7.3635  -7.3622  -7.3245  -7.3231
    -7.2645  -7.2641  -7.2528  -7.2521  -7.1736  -7.1726  -7.0563  -7.0562
    -7.0117  -7.0113  -6.3443  -6.3408  -6.3398  -6.3362  -6.1176  -6.1164
    -6.0845  -6.0831  -5.4515  -5.4495  -5.2932  -5.2914  -5.2534  -5.2531
    -5.0421  -5.0419  -5.0115  -5.0113  -4.3489  -4.3465  -4.3243  -4.3218
    -4.3140  -4.3136  -4.2897  -4.2895  -4.2328  -4.2325  -4.1279  -4.1277
    -3.9677  -3.9675  -3.9559  -3.9556  -3.9045  -3.9040  -3.8168  -3.8166
    -3.8124  -3.8122  -3.2732  -3.2729  -3.2034  -3.2031  -3.1513  -3.1505
    -2.9213  -2.9211  -2.7918  -2.7910  -2.7433  -2.7409  -2.7056  -2.7034
    -2.4873  -2.4871  -2.4531  -2.4529  -2.4161  -2.4159  -1.9094  -1.9094
    -1.6372  -1.6372  -0.1699  -0.1697   0.0261   0.0262   0.1289   0.1292
     0.9978   0.9991   1.0744   1.0757   1.1161   1.1162   1.4971   1.4972
     2.0682   2.0682   2.4837   2.4840   2.5184   2.5188   2.8329   2.8332
     2.9028   2.9032   3.2542   3.2548   3.3071   3.3072   3.9566   3.9570
     4.0554   4.0564

          k =-0.5001-0.0000 0.4152 ( 34472 PWs)   bands (ev):

   -82.4763 -82.4761 -79.7388 -79.7385 -51.3239 -51.3237 -51.2282 -51.2280
   -50.9782 -50.9781 -48.5670 -48.5667 -48.5464 -48.5461 -48.4433 -48.4431
   -23.5705 -23.5697 -23.4331 -23.4323 -23.3764 -23.3755 -23.3548 -23.3540
   -21.4464 -21.4456 -21.2707 -21.2699 -21.2607 -21.2599 -21.2341 -21.2333
   -18.7264 -18.7263 -17.9878 -17.9877 -17.7952 -17.7912 -17.7899 -17.7860
   -15.4766 -15.4735 -15.4599 -15.4568 -14.8598 -14.8559 -14.8554 -14.8517
   -12.8339 -12.8296 -12.7589 -12.7545 -11.3629 -11.3616 -11.3387 -11.3375
   -10.9050 -10.9042 -10.7098 -10.7092 -10.1024 -10.0991 -10.0670 -10.0632
    -9.4442  -9.4424  -9.2540  -9.2520  -9.1042  -9.1002  -8.9426  -8.9412
    -8.5299  -8.5255  -8.4810  -8.4724  -8.2387  -8.2335  -8.2035  -8.2018
    -7.8253  -7.8154  -7.4242  -7.4135  -7.3210  -7.3028  -7.2646  -7.2457
    -7.2380  -7.2262  -7.2192  -7.2042  -7.1898  -7.1467  -7.0385  -7.0299
    -6.8989  -6.8917  -6.4921  -6.4881  -6.4847  -6.4804  -6.0717  -6.0686
    -6.0421  -6.0376  -5.4475  -5.4413  -5.3319  -5.3279  -5.1617  -5.1578
    -5.0595  -5.0511  -5.0260  -5.0190  -4.4915  -4.4822  -4.4739  -4.4696
    -4.4224  -4.4191  -4.3776  -4.3765  -4.3175  -4.3140  -4.0642  -4.0637
    -4.0451  -4.0437  -3.9452  -3.9423  -3.8815  -3.8764  -3.7536  -3.7444
    -3.7243  -3.7074  -3.2961  -3.2844  -3.2391  -3.2143  -3.1964  -3.1913
    -3.0587  -3.0395  -2.8033  -2.7998  -2.7603  -2.7579  -2.7306  -2.7278
    -2.6153  -2.6088  -2.5780  -2.5755  -2.4461  -2.4454  -1.6617  -1.6615
    -1.4618  -1.4612  -0.1685  -0.1675   0.1415   0.1422   0.2531   0.2538
     0.9893   0.9943   1.0497   1.0543   1.1121   1.1134   1.4902   1.4913
     2.0314   2.0320   2.4478   2.4493   2.4763   2.4768   2.8497   2.8505
     2.9211   2.9244   3.2507   3.2566   3.3700   3.3712   4.0468   4.0772
     4.1773   4.2014

          k =-0.5002-0.0000 0.8309 ( 34474 PWs)   bands (ev):

   -82.4763 -82.4761 -79.7388 -79.7385 -51.3239 -51.3238 -51.2282 -51.2280
   -50.9781 -50.9780 -48.5670 -48.5667 -48.5464 -48.5461 -48.4434 -48.4431
   -23.5414 -23.5406 -23.4620 -23.4612 -23.3714 -23.3706 -23.3589 -23.3580
   -21.4128 -21.4120 -21.3118 -21.3110 -21.2563 -21.2555 -21.2409 -21.2401
   -18.5761 -18.5761 -18.1507 -18.1506 -17.7881 -17.7841 -17.7830 -17.7790
   -15.4701 -15.4670 -15.4598 -15.4567 -14.8981 -14.8942 -14.8939 -14.8901
   -12.8079 -12.8037 -12.7644 -12.7601 -11.4024 -11.4011 -11.3872 -11.3859
   -10.8602 -10.8590 -10.7500 -10.7492  -9.9953  -9.9922  -9.9840  -9.9806
    -9.3159  -9.3132  -9.2057  -9.2025  -9.0349  -9.0295  -8.9389  -8.9376
    -8.5967  -8.5923  -8.5774  -8.5696  -8.1987  -8.1970  -8.1961  -8.1930
    -7.7559  -7.7382  -7.5241  -7.5006  -7.3264  -7.2970  -7.2520  -7.2331
    -7.2046  -7.1463  -7.1127  -7.0882  -7.0167  -7.0127  -6.9887  -6.9750
    -6.7520  -6.7490  -6.7485  -6.7454  -6.4330  -6.4322  -6.0121  -6.0084
    -5.9768  -5.9755  -5.4371  -5.4296  -5.3611  -5.3538  -5.1544  -5.1446
    -5.0704  -5.0650  -4.9966  -4.9878  -4.8367  -4.8349  -4.7014  -4.6964
    -4.6851  -4.6823  -4.5459  -4.5347  -4.5191  -4.5171  -4.2046  -4.1958
    -3.9866  -3.9747  -3.9257  -3.9249  -3.7562  -3.7405  -3.6577  -3.6568
    -3.6249  -3.6116  -3.4903  -3.4857  -3.2882  -3.2806  -3.1865  -3.1792
    -2.9880  -2.9811  -2.9329  -2.9168  -2.8161  -2.8105  -2.8033  -2.7856
    -2.7812  -2.7801  -2.7710  -2.7684  -2.4150  -2.4139  -1.3056  -1.3053
    -1.1488  -1.1484  -0.1743  -0.1732   0.1714   0.1719   0.6487   0.6495
     0.8399   0.8406   1.0476   1.0494   1.1761   1.1785   1.4762   1.4770
     1.9634   1.9641   2.3863   2.3880   2.4018   2.4023   2.8778   2.8814
     2.9498   2.9544   3.1262   3.1361   3.6828   3.6928   4.3478   4.3794
     4.4940   4.5329

          k =-0.4996-0.0000-1.2479 ( 34464 PWs)   bands (ev):

   -82.4763 -82.4761 -79.7388 -79.7385 -51.3239 -51.3238 -51.2282 -51.2280
   -50.9780 -50.9779 -48.5670 -48.5667 -48.5464 -48.5461 -48.4435 -48.4432
   -23.5026 -23.5017 -23.5008 -23.5000 -23.3657 -23.3648 -23.3642 -23.3633
   -21.3657 -21.3649 -21.3625 -21.3617 -21.2498 -21.2489 -21.2486 -21.2478
   -18.3688 -18.3688 -18.3644 -18.3643 -17.7845 -17.7805 -17.7795 -17.7755
   -15.4656 -15.4625 -15.4610 -15.4579 -14.9168 -14.9130 -14.9128 -14.9090
   -12.7840 -12.7797 -12.7788 -12.7746 -11.4171 -11.4159 -11.4143 -11.4130
   -10.8060 -10.8057 -10.8020 -10.8017  -9.9432  -9.9404  -9.9380  -9.9352
    -9.2283  -9.2267  -9.1889  -9.1874  -8.9927  -8.9917  -8.9338  -8.9326
    -8.6323  -8.6323  -8.6249  -8.6248  -8.1856  -8.1851  -8.1816  -8.1812
    -7.6695  -7.6689  -7.6015  -7.6009  -7.3273  -7.3272  -7.2538  -7.2537
    -7.1504  -7.1503  -7.0980  -7.0979  -6.8999  -6.8989  -6.8959  -6.8949
    -6.8740  -6.8726  -6.8691  -6.8677  -6.0612  -6.0602  -5.9849  -5.9835
    -5.7869  -5.7867  -5.5254  -5.5252  -5.4289  -5.4270  -5.3716  -5.3696
    -5.0874  -5.0873  -5.0842  -5.0840  -4.8275  -4.8268  -4.8226  -4.8216
    -4.7665  -4.7663  -4.7103  -4.7101  -4.5863  -4.5861  -4.3352  -4.3350
    -3.8992  -3.8991  -3.8723  -3.8722  -3.7660  -3.7658  -3.6352  -3.6351
    -3.5260  -3.5257  -3.4383  -3.4380  -3.3044  -3.3043  -3.1917  -3.1914
    -3.1270  -3.1269  -2.9719  -2.9716  -2.8749  -2.8749  -2.8200  -2.8192
    -2.7987  -2.7968  -2.7964  -2.7943  -2.3975  -2.3973  -1.1480  -1.1479
    -0.9893  -0.9892  -0.1787  -0.1784   0.1903   0.1906   0.7291   0.7292
     0.8203   0.8204   1.0605   1.0619   1.2100   1.2112   1.4688   1.4689
     1.9413   1.9413   2.3624   2.3627   2.3649   2.3652   2.8988   2.8993
     2.9608   2.9612   3.0521   3.0522   4.1461   4.1462   4.1695   4.1695
     4.7133   4.7144

          k =-0.5000-0.5838-0.0006 ( 34496 PWs)   bands (ev):

   -82.4763 -82.4761 -79.7388 -79.7385 -51.3239 -51.3238 -51.2282 -51.2280
   -50.9783 -50.9782 -48.5670 -48.5667 -48.5463 -48.5461 -48.4434 -48.4431
   -23.5812 -23.5803 -23.4225 -23.4217 -23.3782 -23.3774 -23.3535 -23.3526
   -21.4583 -21.4576 -21.2622 -21.2614 -21.2550 -21.2542 -21.2315 -21.2307
   -18.7809 -18.7809 -17.9271 -17.9270 -17.7986 -17.7952 -17.7929 -17.7894
   -15.4798 -15.4792 -15.4574 -15.4568 -14.8402 -14.8372 -14.8350 -14.8321
   -12.8536 -12.8534 -12.7445 -12.7443 -11.3467 -11.3467 -11.3067 -11.3065
   -10.9562 -10.9561 -10.6443 -10.6443 -10.1871 -10.1870 -10.0875 -10.0874
    -9.5149  -9.5147  -9.3363  -9.3363  -9.0410  -9.0410  -8.8490  -8.8488
    -8.6916  -8.6916  -8.3829  -8.3829  -8.3082  -8.3081  -8.0956  -8.0956
    -7.8534  -7.8529  -7.3916  -7.3912  -7.3685  -7.3685  -7.3360  -7.3358
    -7.3031  -7.3030  -7.2060  -7.2059  -7.1399  -7.1399  -7.0742  -7.0741
    -7.0272  -7.0268  -6.3457  -6.3443  -6.3368  -6.3354  -6.2697  -6.2697
    -5.8633  -5.8632  -5.4571  -5.4570  -5.3300  -5.3300  -5.2849  -5.2848
    -5.1609  -5.1609  -4.8800  -4.8799  -4.3613  -4.3612  -4.3196  -4.3196
    -4.3133  -4.3131  -4.2966  -4.2964  -4.2181  -4.2180  -4.1379  -4.1379
    -3.9720  -3.9719  -3.9568  -3.9565  -3.8940  -3.8939  -3.8138  -3.8135
    -3.8108  -3.8106  -3.2742  -3.2739  -3.2070  -3.2067  -3.1262  -3.1262
    -2.9241  -2.9239  -2.8360  -2.8359  -2.7268  -2.7261  -2.7183  -2.7176
    -2.4635  -2.4635  -2.4548  -2.4546  -2.4161  -2.4160  -1.9094  -1.9094
    -1.6371  -1.6371  -0.1629  -0.1628   0.0249   0.0250   0.1308   0.1311
     0.9125   0.9125   1.0918   1.0919   1.1843   1.1844   1.4988   1.4989
     2.0706   2.0706   2.4991   2.4992   2.5032   2.5033   2.7517   2.7517
     2.9782   2.9782   3.3086   3.3086   3.4015   3.4016   3.5384   3.5384
     4.3732   4.3925

          k =-0.5001-0.5838 0.4152 ( 34488 PWs)   bands (ev):

   -82.4763 -82.4761 -79.7388 -79.7385 -51.3239 -51.3238 -51.2282 -51.2280
   -50.9783 -50.9781 -48.5670 -48.5667 -48.5464 -48.5461 -48.4434 -48.4431
   -23.5705 -23.5697 -23.4331 -23.4323 -23.3764 -23.3755 -23.3549 -23.3540
   -21.4464 -21.4456 -21.2707 -21.2699 -21.2607 -21.2599 -21.2342 -21.2333
   -18.7264 -18.7264 -17.9878 -17.9877 -17.7952 -17.7916 -17.7896 -17.7860
   -15.4768 -15.4761 -15.4573 -15.4565 -14.8598 -14.8567 -14.8547 -14.8517
   -12.8412 -12.8409 -12.7463 -12.7461 -11.3688 -11.3687 -11.3323 -11.3322
   -10.9342 -10.9342 -10.6647 -10.6646 -10.1318 -10.1317 -10.0496 -10.0494
    -9.4578  -9.4576  -9.3084  -9.3084  -9.0156  -9.0156  -8.8395  -8.8393
    -8.7176  -8.7176  -8.4479  -8.4479  -8.2714  -8.2713  -8.1120  -8.1120
    -7.8259  -7.8255  -7.4285  -7.4281  -7.3020  -7.3015  -7.2817  -7.2807
    -7.2518  -7.2517  -7.1755  -7.1752  -7.1534  -7.1524  -7.0396  -7.0391
    -6.9037  -6.9037  -6.4909  -6.4881  -6.4859  -6.4830  -6.2113  -6.2112
    -5.8347  -5.8347  -5.4587  -5.4587  -5.3547  -5.3546  -5.2159  -5.2156
    -5.1493  -5.1490  -4.8896  -4.8893  -4.5312  -4.5311  -4.4425  -4.4425
    -4.3943  -4.3939  -4.3745  -4.3743  -4.3409  -4.3406  -4.0772  -4.0771
    -4.0329  -4.0328  -3.9456  -3.9453  -3.8726  -3.8724  -3.7563  -3.7562
    -3.7052  -3.7051  -3.2876  -3.2872  -3.2536  -3.2534  -3.1664  -3.1662
    -3.0360  -3.0358  -2.8482  -2.8481  -2.7441  -2.7425  -2.7397  -2.7383
    -2.6131  -2.6130  -2.5628  -2.5628  -2.4401  -2.4399  -1.6617  -1.6617
    -1.4615  -1.4614  -0.1632  -0.1631   0.1415   0.1418   0.2539   0.2540
     0.9478   0.9479   1.0211   1.0212   1.1868   1.1869   1.4927   1.4928
     2.0328   2.0329   2.4605   2.4606   2.4650   2.4651   2.7844   2.7845
     2.9833   2.9833   3.2540   3.2541   3.5098   3.5099   3.6638   3.6638
     4.4429   4.4432

          k =-0.5002-0.5838 0.8309 ( 34450 PWs)   bands (ev):

   -82.4763 -82.4761 -79.7388 -79.7385 -51.3239 -51.3237 -51.2282 -51.2280
   -50.9781 -50.9780 -48.5670 -48.5667 -48.5464 -48.5461 -48.4434 -48.4431
   -23.5414 -23.5406 -23.4620 -23.4612 -23.3714 -23.3706 -23.3589 -23.3580
   -21.4128 -21.4120 -21.3118 -21.3110 -21.2563 -21.2555 -21.2409 -21.2401
   -18.5761 -18.5761 -18.1507 -18.1506 -17.7881 -17.7842 -17.7828 -17.7790
   -15.4700 -15.4689 -15.4580 -15.4568 -14.8981 -14.8947 -14.8935 -14.8902
   -12.8117 -12.8113 -12.7562 -12.7558 -11.4071 -11.4070 -11.3843 -11.3841
   -10.8766 -10.8766 -10.7211 -10.7211 -10.0174 -10.0172  -9.9703  -9.9700
    -9.3350  -9.3349  -9.2432  -9.2432  -8.9508  -8.9508  -8.8063  -8.8061
    -8.7815  -8.7814  -8.5723  -8.5723  -8.2146  -8.2146  -8.1359  -8.1359
    -7.7526  -7.7521  -7.5227  -7.5222  -7.2924  -7.2918  -7.2558  -7.2541
    -7.1719  -7.1706  -7.0946  -7.0943  -7.0156  -7.0152  -6.9900  -6.9895
    -6.7556  -6.7548  -6.7435  -6.7426  -6.4307  -6.4306  -6.1079  -6.1077
    -5.8420  -5.8420  -5.4600  -5.4599  -5.3565  -5.3564  -5.2158  -5.2156
    -5.0450  -5.0445  -4.9960  -4.9955  -4.7648  -4.7643  -4.7378  -4.7376
    -4.6584  -4.6582  -4.5934  -4.5931  -4.4893  -4.4885  -4.1967  -4.1965
    -3.9823  -3.9822  -3.9265  -3.9265  -3.7509  -3.7506  -3.6463  -3.6457
    -3.6217  -3.6215  -3.4928  -3.4925  -3.2882  -3.2880  -3.1789  -3.1786
    -2.9745  -2.9742  -2.9382  -2.9381  -2.8499  -2.8499  -2.7927  -2.7922
    -2.7681  -2.7674  -2.7461  -2.7460  -2.4156  -2.4154  -1.3055  -1.3054
    -1.1487  -1.1486  -0.1724  -0.1723   0.1712   0.1715   0.6490   0.6491
     0.8417   0.8418   1.0248   1.0249   1.1992   1.1992   1.4789   1.4790
     1.9637   1.9637   2.3925   2.3925   2.3975   2.3976   2.8491   2.8494
     2.9824   2.9825   3.1291   3.1294   3.8103   3.8104   3.9997   3.9997
     4.6370   4.6378

          k =-0.4996-0.5838-1.2479 ( 34400 PWs)   bands (ev):

   -82.4763 -82.4761 -79.7388 -79.7385 -51.3238 -51.3237 -51.2281 -51.2280
   -50.9779 -50.9778 -48.5670 -48.5667 -48.5463 -48.5461 -48.4434 -48.4431
   -23.5026 -23.5017 -23.5007 -23.4999 -23.3656 -23.3648 -23.3642 -23.3633
   -21.3657 -21.3649 -21.3625 -21.3617 -21.2498 -21.2489 -21.2486 -21.2478
   -18.3688 -18.3687 -18.3644 -18.3643 -17.7845 -17.7805 -17.7795 -17.7755
   -15.4656 -15.4626 -15.4609 -15.4578 -14.9168 -14.9130 -14.9128 -14.9090
   -12.7850 -12.7827 -12.7754 -12.7732 -11.4196 -11.4188 -11.4155 -11.4146
   -10.8130 -10.8130 -10.7846 -10.7846  -9.9564  -9.9559  -9.9326  -9.9322
    -9.2649  -9.2648  -9.2056  -9.2056  -8.8729  -8.8728  -8.8644  -8.8643
    -8.7510  -8.7510  -8.6658  -8.6657  -8.1752  -8.1752  -8.1563  -8.1562
    -7.6740  -7.6735  -7.6110  -7.6106  -7.2937  -7.2936  -7.2750  -7.2749
    -7.1321  -7.1318  -7.1126  -7.1122  -6.9031  -6.9027  -6.8959  -6.8953
    -6.8764  -6.8743  -6.8726  -6.8705  -6.0922  -6.0922  -5.9248  -5.9248
    -5.7962  -5.7960  -5.5233  -5.5232  -5.4585  -5.4585  -5.3501  -5.3500
    -5.1939  -5.1938  -4.9762  -4.9761  -4.8547  -4.8546  -4.8116  -4.8115
    -4.7614  -4.7613  -4.6900  -4.6899  -4.6079  -4.6078  -4.3247  -4.3246
    -3.8997  -3.8996  -3.8742  -3.8742  -3.7686  -3.7683  -3.6304  -3.6303
    -3.5312  -3.5310  -3.4360  -3.4357  -3.3109  -3.3108  -3.1895  -3.1893
    -3.1276  -3.1276  -2.9510  -2.9509  -2.9285  -2.9284  -2.8240  -2.8239
    -2.7793  -2.7791  -2.7695  -2.7693  -2.4027  -2.4025  -1.1479  -1.1479
    -0.9892  -0.9891  -0.1788  -0.1787   0.1897   0.1900   0.7296   0.7297
     0.8207   0.8207   1.0644   1.0645   1.2062   1.2063   1.4712   1.4713
     1.9409   1.9409   2.3634   2.3634   2.3647   2.3647   2.9009   2.9010
     2.9596   2.9596   3.0521   3.0521   4.2655   4.2656   4.2666   4.2668
     4.4645   4.4667

     the Fermi energy is    -0.7453 ev

!    total energy              =   -1877.52303861 Ry
     estimated scf accuracy    <          6.0E-09 Ry
     smearing contrib. (-TS)   =       0.02320681 Ry
     internal energy E=F+TS    =   -1877.54624542 Ry

     The total energy is F=E-TS. E is the sum of the following terms:
     one-electron contribution =   -4858.96895412 Ry
     hartree contribution      =    2497.34616990 Ry
     xc contribution           =    -378.22507844 Ry
     ewald contribution        =     862.57383347 Ry
     Dispersion Correction     =      -0.27221623 Ry

     total magnetization       =     0.00 Bohr mag/cell
     absolute magnetization    =    10.60 Bohr mag/cell

     convergence has been achieved in  33 iterations
 
     init_run     :     31.86s CPU     33.77s WALL (       1 calls)
     electrons    :   2087.66s CPU   2204.57s WALL (       1 calls)

     Called by init_run:
     wfcinit      :     25.33s CPU     26.80s WALL (       1 calls)
     potinit      :      1.94s CPU      1.98s WALL (       1 calls)
     hinit0       :      3.22s CPU      3.25s WALL (       1 calls)

     Called by electrons:
     c_bands      :   1739.74s CPU   1817.58s WALL (      33 calls)
     sum_band     :    293.46s CPU    321.20s WALL (      33 calls)
     v_of_rho     :     11.71s CPU     12.07s WALL (      34 calls)
     newd         :     40.42s CPU     51.47s WALL (      34 calls)
     mix_rho      :      2.40s CPU      2.60s WALL (      33 calls)

     Called by c_bands:
     init_us_2    :     46.36s CPU     46.50s WALL (    2144 calls)
     cegterg      :   1606.75s CPU   1682.92s WALL (    1056 calls)

     Called by *egterg:
     cdiaghg      :     86.65s CPU     89.42s WALL (    4533 calls)
     h_psi        :    864.80s CPU    927.72s WALL (    4565 calls)
     s_psi        :    189.18s CPU    189.36s WALL (    4565 calls)
     g_psi        :      6.82s CPU      6.86s WALL (    3477 calls)

     Called by h_psi:
     h_psi:calbec :    157.76s CPU    161.15s WALL (    4565 calls)
     vloc_psi     :    498.32s CPU    551.34s WALL (    4565 calls)
     add_vuspsi   :    193.50s CPU    195.88s WALL (    4565 calls)

     General routines
     calbec       :    220.73s CPU    225.36s WALL (    5621 calls)
     fft          :      6.39s CPU      6.86s WALL (     844 calls)
     ffts         :      0.21s CPU      0.23s WALL (     134 calls)
     fftw         :    543.70s CPU    600.53s WALL ( 1106712 calls)
     interpolate  :      0.77s CPU      0.80s WALL (      68 calls)
 
     Parallel routines
     fft_scatt_xy :     85.11s CPU     93.61s WALL ( 1107690 calls)
     fft_scatt_yz :    220.05s CPU    244.70s WALL ( 1107690 calls)
 
     PWSCF        :  35m19.65s CPU  37m18.47s WALL

 
   This run was terminated on:  16:20:56  30May2020            

=------------------------------------------------------------------------------=
   JOB DONE.
=------------------------------------------------------------------------------=
