,nodes,WALL_TIME,node_h
0,5,1751,2.4319444444444445
1,10,986,2.738888888888889
2,15,736,3.066666666666667
3,20,551,3.061111111111111
4,25,469,3.2569444444444446
5,30,427,3.558333333333333
6,35,385,3.7430555555555554
7,40,337,3.7444444444444445
8,50,314,4.361111111111111
