mpi	nodes	Time-Profile	Dipoles	Xo	X	Self energy	Other
12	3	1470.0	45.5295	1384.0	1.5958	14.292	24.582699999999903
36	9	604.0	26.5707	547.8331	1.7455	7.9777000000000005	19.87300000000007
72	18	343.0	12.8779	311.0127	1.7116	5.403700000000001	11.994099999999992
108	27	250.0	12.8607	216.0491	1.7434	3.4225	15.924299999999981
144	36	203.0	11.8446	171.887	1.735	2.5992	14.934199999999986
180	45	187.0	13.6641	150.2193	1.7749	2.4651	18.876600000000007
